voter,opinion,vote_date,vote_time
jean,0,26/09/2015,10:46:00
nicolask,1,26/09/2015,11:22:00
gautierfauquembergue,0,26/09/2015,11:42:00
cellular1988,0,26/09/2015,11:42:00
maridoucet,1,26/09/2015,11:57:00
alexistoyane,0,26/09/2015,12:08:00
anneellorahparis,0,26/09/2015,12:08:00
louislepioufle,1,26/09/2015,12:08:00
matthieuchassain,1,26/09/2015,12:17:00
arnaudm,1,26/09/2015,12:52:00
denishure,1,26/09/2015,13:16:00
sebastienmonchamps,1,26/09/2015,13:30:00
mti131,1,26/09/2015,13:46:00
singer,1,26/09/2015,13:53:00
younes,1,26/09/2015,15:11:00
ghislainphu,0,26/09/2015,15:12:00
maltesenadine,0,26/09/2015,15:34:00
pierrecol,1,26/09/2015,15:45:00
laurentcombe,0,26/09/2015,15:51:00
vincent,1,26/09/2015,16:02:00
philippelaquet,1,26/09/2015,16:59:00
jonathancrequer,1,26/09/2015,17:52:00
roux,1,26/09/2015,18:21:00
jeannevarasco,1,26/09/2015,18:42:00
williamassal,1,26/09/2015,18:42:00
guillaumealvarez,1,26/09/2015,19:30:00
williamelkaim,1,26/09/2015,19:36:00
wolfgangbach,1,26/09/2015,19:47:00
vincentbaptiste,1,26/09/2015,19:56:00
robinquelquechose,1,26/09/2015,20:10:00
simonchignard,1,26/09/2015,20:56:00
juliencrestin,1,26/09/2015,20:57:00
samuelauthueil,1,26/09/2015,21:07:00
lp,1,26/09/2015,21:42:00
florentinfeller,1,26/09/2015,21:54:00
delbano,1,26/09/2015,22:06:00
evejullien,1,26/09/2015,22:29:00
danielpujol,1,26/09/2015,23:02:00
oliviersery,-1,26/09/2015,23:03:00
michaelhamon,1,26/09/2015,23:24:00
fredericboutin,-1,27/09/2015,00:52:00
juliencantoni,1,27/09/2015,00:52:00
germaincreuzard,1,27/09/2015,05:29:00
pierreguyomarpro,1,27/09/2015,08:26:00
yvesmartin,1,27/09/2015,08:38:00
florentlafay,1,27/09/2015,08:39:00
raffalli,1,27/09/2015,09:53:00
mathieufarizier,1,27/09/2015,10:54:00
solarus,0,27/09/2015,11:01:00
florencedurandtornare,1,27/09/2015,11:52:00
bouarouaryad,1,27/09/2015,12:20:00
ericsegui,1,27/09/2015,12:47:00
mathieubertrand,1,27/09/2015,13:07:00
dams63,1,27/09/2015,13:19:00
emmanuelhadoux,0,27/09/2015,13:58:00
clementd,1,27/09/2015,14:49:00
sgl,1,27/09/2015,15:05:00
benoitpetit,1,27/09/2015,15:40:00
gilbertprot,1,27/09/2015,16:43:00
alexandrevjamet,1,27/09/2015,16:55:00
duchaduong,1,27/09/2015,17:13:00
salimrahal,1,27/09/2015,17:26:00
francoisblanc,1,27/09/2015,17:32:00
fredericveron,0,27/09/2015,18:17:00
baptistepougetbabadu83510,1,27/09/2015,19:06:00
gonzalez1,1,27/09/2015,19:11:00
coudercylaurent,1,27/09/2015,19:15:00
ig,1,27/09/2015,19:50:00
cecilehayem,1,27/09/2015,20:40:00
claireh,1,27/09/2015,21:02:00
xavierg,1,27/09/2015,21:12:00
paulboueilh,1,27/09/2015,21:26:00
silveremerciersilvae,0,27/09/2015,22:25:00
fredrictoutain1,1,27/09/2015,22:38:00
didierleauteyclement,-1,27/09/2015,23:24:00
valentinplichon,1,28/09/2015,00:01:00
utilisateursupprime,1,28/09/2015,00:05:00
guillaumeayoub,1,28/09/2015,01:07:00
nano920,1,28/09/2015,08:44:00
louisrannou,1,28/09/2015,09:44:00
simonchabot,1,28/09/2015,09:49:00
benoitphuez,-1,28/09/2015,10:51:00
ericheliot,1,28/09/2015,11:07:00
alexandreparc,1,28/09/2015,11:29:00
fredericmetailie,-1,28/09/2015,11:39:00
arnaudquilton,1,28/09/2015,11:43:00
davidaymonin,1,28/09/2015,11:57:00
dufourstephane,1,28/09/2015,11:59:00
nashderoyan,0,28/09/2015,12:05:00
biclerjeanchristophe,1,28/09/2015,12:09:00
melou,1,28/09/2015,12:45:00
brevard,1,28/09/2015,13:27:00
raphaelbarriere,1,28/09/2015,13:41:00
romainmonin,1,28/09/2015,13:50:00
benoitevellin,1,28/09/2015,14:15:00
alexisraymondcarre,1,28/09/2015,14:45:00
sbo,1,28/09/2015,14:47:00
ledieuavocats,1,28/09/2015,14:56:00
martinbroisin,1,28/09/2015,16:00:00
alexanderdoria,1,28/09/2015,16:03:00
lucpierreditmery,1,28/09/2015,16:08:00
catherinemuller,1,28/09/2015,16:55:00
adrienmalin,1,28/09/2015,17:51:00
marcus91,1,28/09/2015,18:40:00
danielkaplan,0,28/09/2015,18:45:00
alainpeurichard,1,28/09/2015,19:03:00
leodecarsin,1,28/09/2015,19:38:00
cyrilbroutin,1,28/09/2015,19:59:00
franckbarthelemy,1,28/09/2015,20:05:00
superchaton,1,28/09/2015,20:34:00
delphinecavallo,1,28/09/2015,20:48:00
antoinediamantberger,1,28/09/2015,21:01:00
lealacroix,1,28/09/2015,21:03:00
antoine,1,28/09/2015,21:17:00
allia,1,28/09/2015,21:55:00
mathieuperraut,1,28/09/2015,22:05:00
forez,1,28/09/2015,22:24:00
pierre1,1,28/09/2015,22:52:00
alainbregy,1,29/09/2015,00:12:00
yannickaudrainleprofdart,1,29/09/2015,00:21:00
julienm,1,29/09/2015,00:29:00
victorlefevre,1,29/09/2015,00:45:00
alinebouveret,1,29/09/2015,01:09:00
drouard,1,29/09/2015,06:54:00
verronneau,1,29/09/2015,08:55:00
brunocolom,1,29/09/2015,09:22:00
mathieuperona,1,29/09/2015,09:25:00
davidvincent,1,29/09/2015,09:53:00
francoisklein,1,29/09/2015,10:32:00
sylvainpelissier,1,29/09/2015,10:33:00
sylvaincomte,1,29/09/2015,10:46:00
bertildef,1,29/09/2015,11:22:00
hervechuzeville,1,29/09/2015,13:00:00
patrickguedj,1,29/09/2015,14:26:00
jblb,1,29/09/2015,14:29:00
pierreb,0,29/09/2015,14:51:00
guillaumelitaudon,1,29/09/2015,15:30:00
guillaumebourgatte,1,29/09/2015,15:30:00
lacombe,1,29/09/2015,16:00:00
augier,1,29/09/2015,16:25:00
pascalsubra,1,29/09/2015,16:32:00
patricktinayre,1,29/09/2015,17:54:00
hervemirabail,1,29/09/2015,18:12:00
murielcornet,1,29/09/2015,18:35:00
drdominiquecornet,1,29/09/2015,18:40:00
matthieuperez,1,29/09/2015,19:09:00
nicolasquenouille,1,29/09/2015,19:43:00
simeliere,1,29/09/2015,21:32:00
simonthorel,1,29/09/2015,21:36:00
transparence,1,29/09/2015,22:06:00
schaef,1,29/09/2015,22:25:00
benjaminbernard,1,29/09/2015,22:38:00
ericpoisse,1,29/09/2015,23:54:00
matthieuarnold,1,30/09/2015,01:56:00
andremallet,1,30/09/2015,05:41:00
florentkaisser,0,30/09/2015,09:22:00
guillaumecherel,1,30/09/2015,10:05:00
laurentmartin,1,30/09/2015,10:33:00
francoisbriat,0,30/09/2015,10:49:00
cherel,1,30/09/2015,11:01:00
legouellecaudrey,1,30/09/2015,11:15:00
alessandrofiorentino,1,30/09/2015,11:35:00
cedricandre,1,30/09/2015,11:45:00
villeneuve,1,30/09/2015,12:00:00
thomas2,1,30/09/2015,12:21:00
kevinanger,1,30/09/2015,13:14:00
maisonobeluc,1,30/09/2015,13:15:00
brunpierre,1,30/09/2015,13:49:00
denis1,1,30/09/2015,13:49:00
ulysseherbach,1,30/09/2015,15:28:00
adrienchantome,1,30/09/2015,15:50:00
depresclement,1,30/09/2015,16:04:00
theophile,0,30/09/2015,16:16:00
sebastienroussel,1,30/09/2015,16:36:00
simonsarazin,1,30/09/2015,17:29:00
catherinebenod,1,30/09/2015,17:48:00
garmier,1,30/09/2015,18:20:00
linefournier,1,30/09/2015,21:08:00
agnesgraf,1,30/09/2015,21:57:00
pierre3,1,30/09/2015,23:04:00
vincentreverdy,1,01/10/2015,02:17:00
sebastienbatard,1,01/10/2015,05:58:00
ludovicsaintbauzel,1,01/10/2015,08:31:00
bonin,1,01/10/2015,09:22:00
pierrechenier,1,01/10/2015,10:23:00
tarfaouinadia,1,01/10/2015,12:16:00
lebretsolervincent,1,01/10/2015,12:47:00
rajaud,1,01/10/2015,13:28:00
nicolaspanti,1,01/10/2015,14:56:00
mariecornette,1,01/10/2015,16:28:00
vigierfrederic,1,01/10/2015,17:10:00
sallantin,0,01/10/2015,17:17:00
arnaudlefray,0,01/10/2015,17:41:00
charlottedessaint,0,01/10/2015,18:14:00
asselindewilliencourt,1,01/10/2015,21:57:00
rubielloluc,1,01/10/2015,22:06:00
leroy,1,02/10/2015,10:08:00
laurent1,1,02/10/2015,10:16:00
berger,1,02/10/2015,11:34:00
philippemarvinu,1,02/10/2015,12:05:00
jeanyvesmartin,-1,02/10/2015,14:18:00
yannisdelmas,1,02/10/2015,16:08:00
yannforget,1,02/10/2015,17:21:00
blandinemarcelin,1,02/10/2015,18:37:00
benoitpier1,0,02/10/2015,22:13:00
jujugigi,1,03/10/2015,01:08:00
jeremyf,1,03/10/2015,08:53:00
raphaelfoisymarquisraphy,1,03/10/2015,11:42:00
stephaneauclair1,1,03/10/2015,14:19:00
chevallierchantepie,1,03/10/2015,14:45:00
emmanuelgazaniol,1,03/10/2015,19:33:00
citoyenne,1,03/10/2015,21:39:00
nicolasbeudon,1,04/10/2015,12:10:00
laurentcosty,1,04/10/2015,14:45:00
luciegrenouilleau,1,04/10/2015,15:02:00
sofdem,1,04/10/2015,15:34:00
misterocelot,1,04/10/2015,17:32:00
pierreyvesmodicom,1,04/10/2015,17:55:00
venet,1,04/10/2015,19:26:00
lemaire1,1,04/10/2015,22:02:00
pasfollelaguepe,-1,04/10/2015,22:40:00
fredericcoubard,0,04/10/2015,23:36:00
hugomathieu,1,05/10/2015,00:55:00
vt,0,05/10/2015,06:21:00
sachadietsch,1,05/10/2015,09:08:00
romainreuillon,1,05/10/2015,09:26:00
launay,1,05/10/2015,09:55:00
simonbernard,1,05/10/2015,10:40:00
hadrienvroylandt,1,05/10/2015,11:05:00
edithboulo,1,05/10/2015,11:29:00
martinelegrisrevel,1,05/10/2015,11:42:00
aurelienberra,1,05/10/2015,13:05:00
vincentxavierjumel,1,05/10/2015,14:54:00
cazin,1,05/10/2015,15:55:00
nicolasviollette1,1,05/10/2015,15:59:00
arnaudlidolf,1,05/10/2015,17:09:00
daviddenoncin,1,05/10/2015,18:55:00
jeanyvestillier,-1,05/10/2015,20:03:00
thibauldfavre,1,05/10/2015,20:13:00
alaingarnierefel,1,05/10/2015,21:49:00
malassignepaul,0,05/10/2015,22:43:00
quentinlemenez,1,06/10/2015,08:38:00
indianazurbach,1,06/10/2015,09:29:00
antoninpadovani,0,06/10/2015,16:18:00
camillefrancoise,1,06/10/2015,16:30:00
guillaumepetite,1,06/10/2015,16:32:00
jonathanpoyer,1,06/10/2015,16:43:00
pascalbocquillon,1,06/10/2015,17:34:00
damienfresier,1,06/10/2015,21:24:00
francoisletellier,1,06/10/2015,21:38:00
lesguer,1,06/10/2015,22:58:00
jlavie,1,07/10/2015,09:55:00
lionelbarbe,1,07/10/2015,10:34:00
marinecgossa,1,07/10/2015,11:29:00
franckpaul,1,07/10/2015,13:40:00
dominiquefilatre,1,07/10/2015,16:23:00
erwanlegrand,1,07/10/2015,18:48:00
mathieuhannoun,1,07/10/2015,18:57:00
jacquesdornelle,1,07/10/2015,19:25:00
gaellekrikorian,1,07/10/2015,19:39:00
hugoterrasse,1,08/10/2015,08:56:00
mateykarassimeonov,1,08/10/2015,11:14:00
pumaindenise,1,08/10/2015,12:11:00
gaulthiergomesleal,1,08/10/2015,13:42:00
humblotpierre,0,08/10/2015,14:15:00
rolandniccoli,1,08/10/2015,16:12:00
anabelvazquez,1,08/10/2015,16:20:00
elisepia,1,08/10/2015,16:31:00
clairebrehier,1,08/10/2015,17:07:00
brunomechin,1,08/10/2015,17:17:00
abigaelpesses,0,08/10/2015,17:52:00
xaviercombelle,1,08/10/2015,18:42:00
chevalier2,1,08/10/2015,20:52:00
bookynette,1,08/10/2015,21:27:00
mauricecorond,1,08/10/2015,21:49:00
landrydubus,1,08/10/2015,23:10:00
marcelpoualion,0,09/10/2015,09:13:00
balague,1,09/10/2015,10:23:00
tifaineinguere,0,09/10/2015,10:56:00
denismouthon,1,09/10/2015,11:45:00
sartori,1,09/10/2015,14:50:00
naldir,0,09/10/2015,15:07:00
christopheosswald,1,09/10/2015,15:39:00
sorouletpillon,1,09/10/2015,18:21:00
thomasschmit,1,09/10/2015,18:25:00
vincentvisonneau,1,09/10/2015,18:54:00
lheureuxmathieu,1,09/10/2015,21:24:00
martinetpierre,0,09/10/2015,21:25:00
buloismichael,1,09/10/2015,21:51:00
frederichelein,1,09/10/2015,22:24:00
yannbonnet,1,09/10/2015,23:43:00
mathildeh,0,10/10/2015,00:14:00
personnaz,1,10/10/2015,07:43:00
jonas,1,10/10/2015,10:04:00
christiancoste,1,10/10/2015,10:25:00
renauddigoindanzin,1,10/10/2015,10:43:00
berteau,1,10/10/2015,12:28:00
alexandretur,1,10/10/2015,12:36:00
pienkowskicorentin,1,10/10/2015,13:29:00
marquantmaxime,1,10/10/2015,16:31:00
matthieu1,1,10/10/2015,17:20:00
laurentdicesare,-1,10/10/2015,18:57:00
philippeplaton,1,10/10/2015,19:07:00
arnouxcyrille,1,10/10/2015,20:10:00
antoineamarilli,1,10/10/2015,21:14:00
pierredelobel,1,10/10/2015,21:38:00
balmon,1,10/10/2015,23:54:00
fabricemonnereau,1,11/10/2015,01:21:00
colindelahiguera,1,11/10/2015,08:41:00
claudegout,0,11/10/2015,09:14:00
vincentbouillet,1,11/10/2015,11:24:00
valeryperrin,1,11/10/2015,12:52:00
yannickmahe2,1,11/10/2015,13:19:00
albanjehenne,1,11/10/2015,13:42:00
ric,1,11/10/2015,13:44:00
aymericpoulainmaubant,1,11/10/2015,14:43:00
michelebrunet,1,11/10/2015,15:25:00
audecharillon,1,11/10/2015,16:02:00
grenierclaude,1,11/10/2015,16:39:00
guillainpotron,1,11/10/2015,17:36:00
catherinemarseille,1,11/10/2015,18:23:00
laurentcellier,1,11/10/2015,19:42:00
christophelewandowski,1,11/10/2015,20:15:00
alaindubrulle,0,11/10/2015,20:27:00
francoisgeze,-1,11/10/2015,20:45:00
thierrypasquier,1,11/10/2015,21:01:00
stephanevial1,1,11/10/2015,21:15:00
amarmuriel,1,11/10/2015,22:11:00
mille,1,11/10/2015,22:58:00
eliemichel,1,11/10/2015,23:58:00
ferrandpascal,1,12/10/2015,09:41:00
jorandon,1,12/10/2015,09:47:00
deputeeisabelleattard,1,12/10/2015,10:30:00
cordelier,1,12/10/2015,11:05:00
jeremylhour,1,12/10/2015,11:22:00
teddythebest,0,12/10/2015,13:31:00
nolwennmaudet,1,12/10/2015,14:48:00
mariehelenejarno,-1,12/10/2015,15:00:00
syndicatnationaldeledition,-1,12/10/2015,15:36:00
franlm,1,12/10/2015,16:02:00
djp1,1,12/10/2015,16:06:00
dominiqueillien,-1,12/10/2015,16:37:00
florencebarre,1,12/10/2015,17:32:00
gwenlaufeyson,1,12/10/2015,17:47:00
jeantets,0,12/10/2015,18:12:00
pernotfrancois,-1,12/10/2015,19:25:00
duhaldesolene,1,12/10/2015,19:34:00
jefmarkhor,1,12/10/2015,19:58:00
benjamindiallo,1,12/10/2015,20:06:00
jeromeolivierdelatour,1,12/10/2015,20:23:00
pageault,1,12/10/2015,20:33:00
baumstimler,1,12/10/2015,21:09:00
pierrefauchere,1,12/10/2015,21:12:00
johanbriglia,1,12/10/2015,21:28:00
marinegoize,1,12/10/2015,21:31:00
houdayer,1,12/10/2015,21:40:00
mangataye,1,12/10/2015,21:45:00
loudieuxfabien,1,12/10/2015,21:47:00
francoislaustriat,1,12/10/2015,21:55:00
benjaminguichard,1,12/10/2015,21:58:00
lauriegopauloo,1,12/10/2015,22:05:00
pierre4,1,12/10/2015,22:07:00
oliviabibrac,1,12/10/2015,22:16:00
severinlemaignan,1,12/10/2015,22:39:00
julianbh,1,12/10/2015,22:59:00
pascalpetit,1,12/10/2015,23:11:00
jeanlallemand,1,13/10/2015,00:08:00
nicolasmartin1,1,13/10/2015,01:34:00
matthieul,0,13/10/2015,01:51:00
chlostawa,1,13/10/2015,02:09:00
paul2,0,13/10/2015,05:52:00
robertdamien,1,13/10/2015,08:38:00
cyrilrobin,1,13/10/2015,09:23:00
mansanvanille,1,13/10/2015,09:47:00
corradomaurini,1,13/10/2015,09:54:00
jeanfrancoismorcillo,1,13/10/2015,10:08:00
elodiemorin,1,13/10/2015,10:19:00
roxanneaddesso,1,13/10/2015,10:25:00
didiergassermorlay,1,13/10/2015,10:39:00
georgeslemaitre,-1,13/10/2015,10:46:00
crespinmariepascale,1,13/10/2015,10:46:00
aimericmougeot,1,13/10/2015,10:48:00
emmanuellecrouzier,1,13/10/2015,10:49:00
paulinedravel,1,13/10/2015,10:52:00
leapernin,1,13/10/2015,10:55:00
didierlair,-1,13/10/2015,11:00:00
clavierpatrice,1,13/10/2015,11:04:00
carpentierjeanmarie,1,13/10/2015,11:09:00
etiennerouzies,1,13/10/2015,11:11:00
mrjohnson,0,13/10/2015,11:12:00
pierremariedhaussy,1,13/10/2015,11:26:00
mathieubetton,1,13/10/2015,11:36:00
catherinegauthier,1,13/10/2015,11:45:00
helenelaxenaire,0,13/10/2015,11:49:00
valvertluisant,0,13/10/2015,11:52:00
bonneau,1,13/10/2015,11:57:00
anaagnello,1,13/10/2015,12:01:00
georgesbeyna,1,13/10/2015,12:13:00
michelanderouard,1,13/10/2015,12:36:00
brebant,1,13/10/2015,12:44:00
laurentbercot1,1,13/10/2015,13:31:00
philippelevasseur,1,13/10/2015,13:31:00
vionsibylle,1,13/10/2015,13:39:00
geoffreyharaux,1,13/10/2015,13:40:00
cristelbdf,0,13/10/2015,13:49:00
matthieukermagoret,1,13/10/2015,14:08:00
thierrybraussen,1,13/10/2015,14:21:00
celinevautrin,1,13/10/2015,14:54:00
nathanfrenot,1,13/10/2015,14:55:00
andretrouilloud,1,13/10/2015,14:59:00
bibliophile,-1,13/10/2015,15:04:00
jacquesjolles,1,13/10/2015,15:07:00
jaimelire,-1,13/10/2015,15:32:00
andrer,1,13/10/2015,17:05:00
editionsdalloz,-1,13/10/2015,17:20:00
troude,1,13/10/2015,17:33:00
hugoferee,1,13/10/2015,17:37:00
richardlayan,1,13/10/2015,17:50:00
arnaudbtd,1,13/10/2015,18:00:00
cingala,1,13/10/2015,18:11:00
carolinebedaux,1,13/10/2015,18:14:00
imanemassaoudi,1,13/10/2015,18:26:00
onyme,1,13/10/2015,18:30:00
martin7,1,13/10/2015,18:41:00
agnesbq,1,13/10/2015,19:11:00
souris,1,13/10/2015,19:20:00
ericdaspet,1,13/10/2015,19:24:00
gautier,1,13/10/2015,19:26:00
adeliedyarobvanneste,1,13/10/2015,19:51:00
baranne,1,13/10/2015,20:04:00
michelsauvain,1,13/10/2015,20:14:00
noebrucy,1,13/10/2015,21:13:00
inradistodilehologne,1,13/10/2015,21:17:00
boloronusjean,1,13/10/2015,21:29:00
clementsipieter,1,13/10/2015,21:39:00
balenghienbenoit,1,13/10/2015,21:51:00
olivierpixa,1,13/10/2015,21:54:00
christophebarbarin,1,13/10/2015,22:25:00
fredericlefevre,1,13/10/2015,22:43:00
nicolaspalix,1,13/10/2015,22:52:00
sophiebaletdebernemontpaul,1,13/10/2015,22:53:00
guycorre,1,13/10/2015,23:14:00
adnanrihan,1,13/10/2015,23:31:00
brianlawrance,1,14/10/2015,00:30:00
neraste,1,14/10/2015,00:34:00
cavereaujeanluc,1,14/10/2015,01:20:00
cavereauvalerie,1,14/10/2015,01:30:00
benalantony,1,14/10/2015,06:55:00
gwendalbriand,1,14/10/2015,08:45:00
jeanpraille,1,14/10/2015,09:17:00
qfr,1,14/10/2015,09:30:00
francismoraud,1,14/10/2015,09:50:00
yannduplouy,1,14/10/2015,09:57:00
christinedemazieres,-1,14/10/2015,10:35:00
nicolaspollet,1,14/10/2015,10:53:00
antoinehenry,1,14/10/2015,11:02:00
pierrelavayssiere,-1,14/10/2015,11:13:00
silvangiraud,1,14/10/2015,11:15:00
lefranc,1,14/10/2015,11:20:00
loicmignon,1,14/10/2015,12:00:00
gribouille,1,14/10/2015,12:18:00
emilegersch,-1,14/10/2015,12:20:00
lalissestephanie,0,14/10/2015,12:39:00
denisbecker,1,14/10/2015,12:43:00
yvanpeter,1,14/10/2015,12:58:00
nicolasdumoulin,1,14/10/2015,13:18:00
sylvainfrandaz,0,14/10/2015,13:50:00
sebastienc,1,14/10/2015,14:10:00
maxdenver,1,14/10/2015,14:24:00
saeditionsdupuis,-1,14/10/2015,15:02:00
samuelchurlaud,1,14/10/2015,15:17:00
martinemarichal,1,14/10/2015,15:26:00
mouneaulallementaudrey,1,14/10/2015,15:45:00
bp94,1,14/10/2015,15:46:00
federationnationaledelapressedinformationspecialisee,-1,14/10/2015,16:01:00
nicolasklis,1,14/10/2015,16:01:00
editionsgallimard,-1,14/10/2015,17:05:00
jouan1,1,14/10/2015,17:09:00
antoineeloy,1,14/10/2015,17:11:00
jan,1,14/10/2015,17:26:00
legalflammarion,-1,14/10/2015,17:36:00
fieec,0,14/10/2015,17:43:00
lalidetigues,1,14/10/2015,17:59:00
mary,-1,14/10/2015,18:28:00
sarah,-1,14/10/2015,18:31:00
huberthoreau,1,14/10/2015,18:45:00
bernardchardonneau,1,14/10/2015,18:57:00
latrillejeanmarie,1,14/10/2015,19:00:00
laurentpointal,1,14/10/2015,19:19:00
pourillevalentin,1,14/10/2015,20:01:00
stephanemahe,1,14/10/2015,22:30:00
marcjeanmougin,1,14/10/2015,22:38:00
virgileprevosto,1,14/10/2015,22:54:00
aureliendumaine,1,14/10/2015,23:05:00
patrickhoenig,1,14/10/2015,23:22:00
nicolasmazars,-1,15/10/2015,00:26:00
henno,1,15/10/2015,00:38:00
bourdonveronique,1,15/10/2015,01:01:00
babutmarc,1,15/10/2015,06:49:00
virgileandreani,1,15/10/2015,08:21:00
jamessebastien,1,15/10/2015,08:34:00
viala,1,15/10/2015,08:41:00
yvesdelavilleguerin,-1,15/10/2015,09:20:00
marcantoineweisser,1,15/10/2015,09:54:00
sillardbrigitte,-1,15/10/2015,10:03:00
theveniauruissy,1,15/10/2015,10:37:00
hugody,1,15/10/2015,10:47:00
cremonini,-1,15/10/2015,11:07:00
guillaudbacheterwan,1,15/10/2015,11:11:00
marieanneferryfall,-1,15/10/2015,11:25:00
catherineperrin,1,15/10/2015,11:45:00
apincetre,1,15/10/2015,12:17:00
vivianeolivier,1,15/10/2015,12:24:00
pierrelouislaunay,1,15/10/2015,12:48:00
freds,1,15/10/2015,13:01:00
williamtriggs,1,15/10/2015,13:04:00
billduchemin,1,15/10/2015,13:11:00
trebucqalain,1,15/10/2015,13:34:00
gillesdelattre,1,15/10/2015,13:41:00
elodiepaille,1,15/10/2015,13:47:00
pujoschristian,1,15/10/2015,13:54:00
perry,1,15/10/2015,14:01:00
gaelbordet,-1,15/10/2015,14:09:00
christineollendorff,1,15/10/2015,14:31:00
laurablasutto,1,15/10/2015,14:31:00
damienlacoste,1,15/10/2015,14:43:00
fredericbezies,1,15/10/2015,15:52:00
jeanlucgrasset,1,15/10/2015,16:12:00
lauremerindol,0,15/10/2015,16:16:00
emerybastien,1,15/10/2015,16:30:00
actessud,-1,15/10/2015,16:32:00
remycazabet,1,15/10/2015,17:06:00
helenebourguignon,-1,15/10/2015,17:11:00
afnum,0,15/10/2015,17:34:00
terierjoel,1,15/10/2015,17:47:00
ericrigoulot,1,15/10/2015,18:13:00
bernardloic,0,15/10/2015,18:25:00
gourlaymarcmichele,1,15/10/2015,18:28:00
mariuttiroseline,1,15/10/2015,18:47:00
christinelebas,1,15/10/2015,18:48:00
mathieugauthierpilote,1,15/10/2015,19:26:00
marty1,1,15/10/2015,20:42:00
florentbonnet,1,15/10/2015,20:53:00
gchartron,0,15/10/2015,20:54:00
dumeige,-1,15/10/2015,21:13:00
jetzerlaurent,1,15/10/2015,21:25:00
thierrycadin1,0,15/10/2015,21:42:00
bastiendurel,1,15/10/2015,22:24:00
vargoz,0,15/10/2015,22:51:00
elodieponcet,0,15/10/2015,22:56:00
pierrewizla,0,15/10/2015,23:04:00
olivierlenoir,0,15/10/2015,23:22:00
francoismasurel,1,16/10/2015,00:19:00
jeremydemiaz,1,16/10/2015,00:24:00
gimbert,1,16/10/2015,00:52:00
emilien,1,16/10/2015,01:18:00
sabineallegrinivergne,1,16/10/2015,09:17:00
martinlionel,1,16/10/2015,09:19:00
confaisaurelia,1,16/10/2015,09:31:00
juliegautierphaneuf,-1,16/10/2015,09:44:00
bobi,1,16/10/2015,10:01:00
baselopresse,-1,16/10/2015,10:21:00
christopheguychard,0,16/10/2015,10:28:00
ledeuffolivier,1,16/10/2015,10:29:00
emmanuelbarthelemy,-1,16/10/2015,10:33:00
didierbailhous,-1,16/10/2015,10:36:00
kareng,1,16/10/2015,11:03:00
trombert,1,16/10/2015,11:04:00
loicbrondin,1,16/10/2015,11:22:00
sebastiengeldreich,1,16/10/2015,11:26:00
cfc,-1,16/10/2015,11:28:00
tristantimme,1,16/10/2015,11:30:00
alexandredouvry,1,16/10/2015,11:41:00
achillefalaise,0,16/10/2015,11:42:00
fredericneau,1,16/10/2015,11:46:00
johandelahaye,1,16/10/2015,11:52:00
victorlanselle,1,16/10/2015,12:15:00
corminboeuf,1,16/10/2015,12:18:00
christinecoustau,1,16/10/2015,12:45:00
annerevillard,1,16/10/2015,12:54:00
emiliemgzn,0,16/10/2015,12:56:00
mrbricolage,1,16/10/2015,13:27:00
nathaliemarcerouramel,1,16/10/2015,13:35:00
deoliveirakevin,1,16/10/2015,13:41:00
vincentguezou,1,16/10/2015,13:44:00
alainbensoussan,1,16/10/2015,13:44:00
laurencedebodman,1,16/10/2015,13:54:00
simonschatz,1,16/10/2015,13:56:00
delphinemarin,-1,16/10/2015,14:13:00
legendre,1,16/10/2015,14:26:00
valentin,1,16/10/2015,14:33:00
luzinsas,1,16/10/2015,14:36:00
castelainjeanchristophe,-1,16/10/2015,14:44:00
camilleleflon,1,16/10/2015,14:54:00
associationadrets,1,16/10/2015,15:00:00
lamyjeanbaptiste,1,16/10/2015,15:17:00
remyverger,1,16/10/2015,15:32:00
duflotjeanluc,1,16/10/2015,15:37:00
juliegillot,1,16/10/2015,15:41:00
felixhartmann,0,16/10/2015,16:28:00
sacd1,-1,16/10/2015,16:42:00
marcelamichot,1,16/10/2015,16:42:00
aureliemartin,0,16/10/2015,16:57:00
wilmottechristiane,1,16/10/2015,16:58:00
pascaltanesie,1,16/10/2015,17:00:00
patrickfenouil,-1,16/10/2015,17:10:00
instancesnumeriquesdumedef,0,16/10/2015,17:55:00
rimshot,1,16/10/2015,18:00:00
doll,1,16/10/2015,18:06:00
emmanuellehelly,0,16/10/2015,18:07:00
lascam,-1,16/10/2015,18:17:00
stephanepara,1,16/10/2015,18:17:00
katiouchkatia,1,16/10/2015,18:18:00
sepmsyndicatdesediteursdelapressemagazine,-1,16/10/2015,18:27:00
ericmasson,1,16/10/2015,18:42:00
jeanmarcporcherot,1,16/10/2015,18:51:00
marcesylvie,-1,16/10/2015,18:54:00
institutderechercheenproprieteintellectuelleirpi1,-1,16/10/2015,19:20:00
sebastienherve,1,16/10/2015,19:27:00
bigautjerome,1,16/10/2015,19:34:00
richardmalgouzou1,0,16/10/2015,20:09:00
marielaureguegen,-1,16/10/2015,20:13:00
christophepi,0,16/10/2015,20:15:00
chopin1,0,16/10/2015,20:16:00
tschudy,1,16/10/2015,21:18:00
camposremy,1,16/10/2015,21:19:00
anneonym,1,16/10/2015,21:34:00
fredericduton,1,16/10/2015,21:41:00
isabellekrzywkowski,1,16/10/2015,21:50:00
caminal,1,16/10/2015,21:55:00
jacquemotperbalmariechristine,1,16/10/2015,22:18:00
francoisalberici,1,16/10/2015,22:29:00
mickaelgervais,1,16/10/2015,22:44:00
uniondesjeunesavocatsdeparis,1,16/10/2015,22:49:00
jeansebastienmariez,0,16/10/2015,22:53:00
fredericrisy,1,16/10/2015,23:00:00
jeromeschwartz,1,16/10/2015,23:22:00
merwan,1,16/10/2015,23:23:00
dominiquelahary,1,16/10/2015,23:29:00
nathaelpajani,1,16/10/2015,23:54:00
fleurianeamadou,0,17/10/2015,01:04:00
davidcoat,1,17/10/2015,01:15:00
julienandrelucienhuart,1,17/10/2015,04:37:00
yadlajoie,-1,17/10/2015,08:02:00
congresmouvementjeuenenotariatconnaissance,0,17/10/2015,08:47:00
guillaumerobert,1,17/10/2015,09:56:00
quentinguille,1,17/10/2015,09:58:00
jcmilhet,0,17/10/2015,10:33:00
giraud4,1,17/10/2015,10:34:00
stephanegauchet,1,17/10/2015,10:39:00
ericvinouze,1,17/10/2015,10:40:00
etiennehayem,1,17/10/2015,11:11:00
francoisducrocq,1,17/10/2015,11:50:00
alainsanguinetti,1,17/10/2015,12:00:00
romainbeis,1,17/10/2015,12:07:00
valeriehurtevent1,1,17/10/2015,12:09:00
laurentcocault,1,17/10/2015,13:15:00
tanguylaunay,1,17/10/2015,13:18:00
monsieurtino,1,17/10/2015,13:42:00
philippebeauvillard,-1,17/10/2015,13:51:00
sdm94,1,17/10/2015,14:04:00
xaviergalaup,1,17/10/2015,14:34:00
martindonati,1,17/10/2015,14:35:00
mariondaumas,1,17/10/2015,15:10:00
adriensix,1,17/10/2015,15:43:00
thibauldnion,1,17/10/2015,15:54:00
gege,1,17/10/2015,15:57:00
maujoel,1,17/10/2015,16:02:00
nicolasbraudsantoni,0,17/10/2015,16:23:00
nickbrskabuto,1,17/10/2015,16:34:00
sophiebentz,1,17/10/2015,16:45:00
manueladournes,-1,17/10/2015,17:05:00
fredericbodin,1,17/10/2015,17:09:00
olivieraumage,1,17/10/2015,17:09:00
cassandrebegous,1,17/10/2015,17:34:00
gauthierdelpech,1,17/10/2015,17:44:00
giselemaxit,1,17/10/2015,18:04:00
galeran,1,17/10/2015,18:14:00
laurentbrochet,1,17/10/2015,18:16:00
hadrienduprez,1,17/10/2015,18:18:00
vivien,1,17/10/2015,18:23:00
fredericnakache,-1,17/10/2015,18:51:00
zazaweygand,-1,17/10/2015,18:52:00
daniellelayris,1,17/10/2015,18:53:00
etienneduclos,0,17/10/2015,18:56:00
laurentblin,1,17/10/2015,19:09:00
yvesjeangillot,1,17/10/2015,19:42:00
clairelemercier,1,17/10/2015,19:48:00
robintrabut,1,17/10/2015,19:54:00
odileverdurelabeille,1,17/10/2015,20:05:00
williambernaud,1,17/10/2015,20:09:00
mickaellantin,-1,17/10/2015,20:10:00
alainheribertschmitt,1,17/10/2015,20:25:00
ericcholay,1,17/10/2015,20:40:00
fredericdavitoria,0,17/10/2015,20:48:00
audreyprevost,1,17/10/2015,21:00:00
dalbinsylvie,1,17/10/2015,21:34:00
agnesespritdeplume,1,17/10/2015,21:35:00
thevenon,1,17/10/2015,22:34:00
chrysteleverfaille,0,17/10/2015,22:42:00
aureliennauwelaers,1,17/10/2015,22:47:00
serresalexandre,1,17/10/2015,23:34:00
vincentcasse,1,17/10/2015,23:34:00
masson7,1,17/10/2015,23:49:00
syll,1,17/10/2015,23:55:00
kevincanevet,1,18/10/2015,00:03:00
lucazeau,1,18/10/2015,00:15:00
mouniegregory,1,18/10/2015,00:42:00
marcdequenes,0,18/10/2015,00:49:00
alexandrelasch,-1,18/10/2015,00:57:00
badiibrahim,1,18/10/2015,02:50:00
robertmoreau,1,18/10/2015,03:17:00
isabelpouzin,1,18/10/2015,05:45:00
maudkocenda,1,18/10/2015,06:10:00
jeanmariemerle1,1,18/10/2015,09:09:00
hennuyer,1,18/10/2015,09:30:00
scotrelle,1,18/10/2015,09:33:00
pierredanet,-1,18/10/2015,09:56:00
fredericjeanjoseph,1,18/10/2015,10:10:00
alainmarois,1,18/10/2015,10:24:00
louisgranboulan,0,18/10/2015,10:39:00
michelinelasch,-1,18/10/2015,10:45:00
lattard,1,18/10/2015,10:56:00
louisgesbert,1,18/10/2015,10:59:00
wertheimer,-1,18/10/2015,11:05:00
mariehoarau,0,18/10/2015,11:26:00
gami,1,18/10/2015,11:36:00
jeromeveron,1,18/10/2015,11:51:00
vallettebruno,1,18/10/2015,11:55:00
sattisvartandabany,1,18/10/2015,11:56:00
isocfrance1,1,18/10/2015,12:00:00
iabd,1,18/10/2015,12:20:00
php,1,18/10/2015,13:15:00
ratsimandravasuzanne,1,18/10/2015,13:18:00
veroniquepedretti,-1,18/10/2015,13:18:00
melaniepedretti,-1,18/10/2015,13:18:00
adriensaumureau,1,18/10/2015,13:19:00
legrandrene,-1,18/10/2015,13:37:00
gesbert,1,18/10/2015,13:37:00
mariefarge1,1,18/10/2015,13:38:00
jeanpierregesbert,1,18/10/2015,13:43:00
syndicatnationaldeleditionphonographique,-1,18/10/2015,13:53:00
ericlauvaux,0,18/10/2015,13:54:00
brunosebilet,1,18/10/2015,14:20:00
adbsassociationdesprofessionnelsdelinformationetdeladocumentation1,1,18/10/2015,14:26:00
ghaffari,1,18/10/2015,14:29:00
bertramblank,1,18/10/2015,14:38:00
micheldonval,-1,18/10/2015,14:47:00
bordelanne,-1,18/10/2015,14:50:00
ericf,1,18/10/2015,15:00:00
helenadelabarre,-1,18/10/2015,15:33:00
dylanconeggo,0,18/10/2015,16:00:00
richardzahorosko,-1,18/10/2015,16:27:00
constancedequatrebarbes,1,18/10/2015,16:27:00
laurentelghouzzi,1,18/10/2015,16:34:00
christofolherve,1,18/10/2015,16:49:00
matthieugras,0,18/10/2015,16:53:00
fernandezahorosko,-1,18/10/2015,16:55:00
gregorylasch,-1,18/10/2015,17:17:00
arnaud5,1,18/10/2015,17:22:00
jeanfrancoisperrat,1,18/10/2015,17:23:00
stephanielacour,0,18/10/2015,17:27:00
antonindelpeuch,1,18/10/2015,17:27:00
gerardlasch,-1,18/10/2015,17:32:00
louismaucout,0,18/10/2015,17:33:00
dessertenne,1,18/10/2015,17:35:00
fredericmandon,1,18/10/2015,17:40:00
stminternationalassociationofscientifictechnicalandmedicalpublishers,-1,18/10/2015,17:44:00
jonathanzahorosko,-1,18/10/2015,17:54:00
accettella,-1,18/10/2015,17:55:00
thierrytaboy,1,18/10/2015,18:00:00
guillaumenoyrit,1,18/10/2015,18:01:00
philippehoudry,1,18/10/2015,18:19:00
ericmagnien,1,18/10/2015,18:20:00
raveau,-1,18/10/2015,18:26:00
chaubaroux,1,18/10/2015,18:37:00
mv73,1,18/10/2015,18:44:00
fleurmeyer,1,18/10/2015,18:45:00
loictosser,1,18/10/2015,18:50:00
thibenn,1,18/10/2015,18:54:00
tolstoi,1,18/10/2015,18:58:00
lefebvrenarefrederic,1,18/10/2015,19:19:00
christophegullibert,1,18/10/2015,19:19:00
pascalfagniez,0,18/10/2015,19:39:00
pecquet,1,18/10/2015,19:42:00
antoniecartierdemoustier,-1,18/10/2015,19:44:00
valeryxavierlentz,1,18/10/2015,19:44:00
laurentberardquelin,-1,18/10/2015,19:47:00
severineverziborgese,0,18/10/2015,19:48:00
polenumerique,1,18/10/2015,20:02:00
artigue,1,18/10/2015,20:04:00
thomasguillot,1,18/10/2015,20:10:00
valeriesorreldejerine,-1,18/10/2015,20:18:00
roumigus,1,18/10/2015,20:19:00
tiffanysarre,1,18/10/2015,20:25:00
pbernard,0,18/10/2015,20:27:00
odilebenassy2,1,18/10/2015,20:52:00
deteleila,-1,18/10/2015,20:55:00
alaincimino,1,18/10/2015,20:56:00
vincearpoulet,1,18/10/2015,21:04:00
dianewakim,1,18/10/2015,21:06:00
patriciachauvard,1,18/10/2015,21:13:00
anneboraud,1,18/10/2015,21:20:00
jeanpierrebourguignon,1,18/10/2015,21:43:00
charlesruelle,-1,18/10/2015,21:52:00
christophepavlides,1,18/10/2015,22:04:00
leheinfabienne,1,18/10/2015,22:05:00
nicolasquinio,1,18/10/2015,22:06:00
hautboissophie,-1,18/10/2015,22:13:00
guillaumeduval,1,18/10/2015,22:23:00
theresebouveret1,1,18/10/2015,22:23:00
benoitchappet,1,18/10/2015,22:24:00
florianbriand,1,18/10/2015,22:28:00
co,1,18/10/2015,22:38:00
favreguillaume,1,18/10/2015,22:40:00
jeanbaptistecamps,1,18/10/2015,22:50:00
attia,1,18/10/2015,22:55:00
sebastienbrossier,1,18/10/2015,23:02:00
baudryvalerie,-1,18/10/2015,23:05:00
gou,1,18/10/2015,23:49:00
orianneledroit,1,18/10/2015,23:56:00
isabelleramade,1,18/10/2015,23:58:00
