cat_id	updated_at	arguments_count	versions_count	votes_total	sources_count	votes_ok	created_at	votes_mitige	_id	votes_nok
86	2015-09-29T11:50:19+0200	95	116	2447	8	2237	2015-09-26T02:27:54+0200	161	61	49
86	2015-09-26T07:24:12+0200	44	32	1318	3	1124	2015-09-26T02:27:55+0200	132	62	62
86	2015-09-26T07:30:07+0200	35	18	1106	0	690	2015-09-26T02:27:55+0200	254	63	162
87	2015-09-26T07:35:33+0200	38	30	892	3	797	2015-09-26T02:27:55+0200	66	64	29
88	2015-09-26T07:33:06+0200	21	27	658	0	606	2015-09-26T02:27:56+0200	33	65	19
88	2015-09-26T07:30:26+0200	23	13	777	1	736	2015-09-26T02:27:56+0200	29	66	12
88	2015-09-26T07:35:13+0200	54	19	800	1	369	2015-09-26T02:27:56+0200	210	67	221
90	2015-09-28T08:43:52+0200	25	49	822	2	655	2015-09-26T02:27:57+0200	84	68	83
91	2015-09-26T07:31:38+0200	132	108	3334	22	1320	2015-09-26T02:27:57+0200	282	69	1732
91	2015-09-26T07:20:07+0200	40	12	706	1	410	2015-09-26T02:27:57+0200	101	70	195
94	2015-09-26T07:20:26+0200	40	24	1426	1	1370	2015-09-26T02:27:57+0200	45	71	11
95	2015-09-26T07:23:49+0200	47	38	796	0	704	2015-09-26T02:27:58+0200	60	72	32
96	2015-09-26T07:21:05+0200	38	31	669	2	606	2015-09-26T02:27:59+0200	54	73	9
96	2015-09-26T07:21:26+0200	24	16	379	1	264	2015-09-26T02:27:59+0200	92	74	23
97	2015-09-26T07:52:24+0200	31	24	488	2	421	2015-09-26T02:28:00+0200	49	75	18
99	2015-09-26T07:22:24+0200	25	31	733	2	693	2015-09-26T02:28:00+0200	28	76	12
99	2015-09-26T07:22:46+0200	23	30	495	2	428	2015-09-26T02:28:00+0200	43	77	24
99	2015-09-26T07:23:06+0200	22	13	324	1	230	2015-09-26T02:28:01+0200	74	78	20
99	2015-09-26T07:37:12+0200	28	34	561	0	427	2015-09-26T02:28:01+0200	90	79	44
99	2015-09-26T07:24:37+0200	35	16	625	0	563	2015-09-26T02:28:01+0200	45	80	17
99	2015-09-26T07:25:08+0200	7	3	187	0	170	2015-09-26T02:28:01+0200	11	81	6
100	2015-09-26T07:25:31+0200	35	26	853	1	793	2015-09-26T02:28:02+0200	41	82	19
103	2015-09-26T07:25:54+0200	22	41	368	2	317	2015-09-26T02:28:02+0200	33	83	18
104	2015-09-26T07:26:20+0200	9	7	386	6	375	2015-09-26T02:28:02+0200	6	84	5
104	2015-09-26T07:27:39+0200	13	7	226	5	145	2015-09-26T02:28:02+0200	66	85	15
106	2015-09-26T07:28:27+0200	21	10	392	5	335	2015-09-26T02:28:03+0200	40	86	17
107	2015-09-26T07:28:43+0200	81	30	1380	6	712	2015-09-26T02:28:03+0200	145	87	523
109	2015-09-26T07:29:14+0200	19	24	498	7	448	2015-09-26T02:28:03+0200	32	88	18
110	2015-09-26T07:29:40+0200	45	22	408	5	286	2015-09-26T02:28:04+0200	75	89	47
111	2015-09-26T07:30:47+0200	24	11	833	5	684	2015-09-26T02:28:04+0200	69	90	80
86	2015-12-02T16:22:20+0100	51	29	526	2	189	2015-09-26T11:27:25+0200	191	91	146
100	2015-09-26T11:46:34+0200	16	5	750	2	735	2015-09-26T11:46:34+0200	12	93	3
86	2015-12-02T16:26:33+0100	22	12	997	1	960	2015-09-26T11:52:50+0200	25	94	12
94	2015-09-26T13:46:44+0200	22	1	275	2	250	2015-09-26T12:11:27+0200	12	95	13
94	2015-10-07T11:17:52+0200	9	2	172	0	8	2015-09-26T12:46:01+0200	8	96	156
109	2015-09-26T12:53:41+0200	10	1	115	0	90	2015-09-26T12:53:41+0200	13	97	12
106	2015-09-26T13:25:44+0200	14	6	260	0	248	2015-09-26T13:25:44+0200	9	98	3
97	2015-09-26T13:43:14+0200	13	1	112	2	80	2015-09-26T13:43:14+0200	13	99	19
104	2015-09-26T14:05:04+0200	11	2	106	0	25	2015-09-26T14:05:04+0200	9	100	72
103	2015-12-02T22:20:05+0100	23	16	296	0	242	2015-09-26T14:12:03+0200	22	101	32
104	2015-09-26T14:15:15+0200	16	2	175	0	102	2015-09-26T14:15:15+0200	42	102	31
86	2015-12-02T16:29:41+0100	88	18	885	8	231	2015-09-26T14:21:35+0200	91	103	563
86	2015-12-02T16:32:28+0100	35	7	572	2	522	2015-09-26T14:26:25+0200	23	104	27
94	2015-09-30T15:17:50+0200	21	2	80	0	22	2015-09-26T14:28:10+0200	9	105	49
90	2015-09-26T14:49:57+0200	24	4	334	1	203	2015-09-26T14:49:09+0200	47	106	84
106	2015-09-26T14:57:19+0200	10	2	111	0	76	2015-09-26T14:57:19+0200	11	107	24
86	2015-12-02T16:39:28+0100	19	3	278	0	246	2015-09-26T14:58:15+0200	17	108	15
104	2015-09-26T15:00:14+0200	17	4	222	10	182	2015-09-26T15:00:14+0200	16	109	24
111	2015-09-26T15:09:46+0200	26	4	416	6	268	2015-09-26T15:09:46+0200	51	110	97
86	2015-12-02T16:47:35+0100	11	5	190	0	144	2015-09-26T15:12:21+0200	32	111	14
86	2015-12-02T16:49:57+0100	16	4	200	0	101	2015-09-26T15:16:08+0200	35	112	64
88	2015-09-26T15:30:13+0200	30	4	572	1	495	2015-09-26T15:30:13+0200	45	113	32
99	2015-09-26T15:33:46+0200	14	2	140	2	118	2015-09-26T15:33:46+0200	17	114	5
88	2015-12-02T17:31:33+0100	63	24	1919	8	1817	2015-09-26T16:14:18+0200	58	115	44
88	2015-12-02T17:34:08+0100	5	0	57	0	16	2015-09-26T16:25:41+0200	11	116	30
99	2015-09-26T16:28:04+0200	16	3	192	0	179	2015-09-26T16:28:04+0200	9	118	4
104	2015-09-26T16:38:46+0200	12	2	119	0	106	2015-09-26T16:38:46+0200	8	119	5
103	2015-09-26T16:41:59+0200	40	8	309	3	105	2015-09-26T16:41:59+0200	46	120	158
88	2015-09-26T16:59:21+0200	11	1	122	0	103	2015-09-26T16:59:21+0200	14	121	5
103	2015-09-26T17:09:39+0200	8	3	59	0	31	2015-09-26T17:09:39+0200	15	122	13
103	2015-09-26T17:10:35+0200	18	3	333	0	321	2015-09-26T17:10:35+0200	9	123	3
109	2015-09-26T17:17:23+0200	6	0	114	0	114	2015-09-26T17:17:23+0200	0	124	0
111	2015-09-26T17:35:12+0200	10	0	52	0	9	2015-09-26T17:35:12+0200	32	125	11
94	2015-09-26T17:48:41+0200	8	6	498	2	484	2015-09-26T17:48:41+0200	6	126	8
94	2015-10-07T11:23:47+0200	6	1	69	0	50	2015-09-26T17:59:13+0200	3	127	16
86	2015-09-26T19:45:59+0200	6	1	128	1	112	2015-09-26T19:45:59+0200	9	128	7
106	2015-09-26T19:47:17+0200	17	3	166	3	146	2015-09-26T19:47:17+0200	14	129	6
86	2015-09-26T19:51:42+0200	14	3	148	0	89	2015-09-26T19:51:42+0200	17	130	42
86	2015-12-02T16:52:08+0100	16	4	407	0	331	2015-09-26T19:59:32+0200	45	131	31
91	2015-09-26T20:15:46+0200	32	5	492	1	402	2015-09-26T20:15:46+0200	40	132	50
87	2015-09-26T21:02:03+0200	14	3	250	0	41	2015-09-26T21:02:03+0200	60	133	149
91	2015-09-26T21:04:56+0200	8	1	203	2	185	2015-09-26T21:04:56+0200	10	134	8
99	2015-09-26T21:07:28+0200	8	1	80	2	77	2015-09-26T21:07:28+0200	0	135	3
110	2015-09-26T21:07:37+0200	4	1	168	0	168	2015-09-26T21:07:37+0200	0	136	0
90	2015-09-26T21:17:58+0200	15	0	325	2	237	2015-09-26T21:17:58+0200	44	137	44
100	2015-09-26T21:18:29+0200	11	1	248	1	225	2015-09-26T21:18:29+0200	11	138	12
95	2015-09-26T21:27:17+0200	10	5	181	0	96	2015-09-26T21:27:17+0200	54	139	31
104	2015-09-26T21:31:22+0200	4	0	28	0	2	2015-09-26T21:30:17+0200	2	140	24
86	2015-09-26T21:37:12+0200	13	4	149	1	131	2015-09-26T21:37:12+0200	10	141	8
97	2015-09-26T21:45:43+0200	3	0	63	0	28	2015-09-26T21:45:43+0200	20	142	15
107	2015-09-26T22:40:19+0200	3	0	38	0	20	2015-09-26T22:39:42+0200	3	143	15
88	2015-09-26T23:38:17+0200	6	1	203	1	189	2015-09-26T23:38:17+0200	11	144	3
86	2015-09-26T23:43:13+0200	6	0	49	0	23	2015-09-26T23:43:13+0200	15	145	11
99	2015-09-26T23:45:10+0200	13	2	98	3	75	2015-09-26T23:45:10+0200	11	146	12
86	2015-12-02T16:54:30+0100	15	1	423	2	381	2015-09-26T23:45:16+0200	10	147	32
86	2015-12-02T16:57:43+0100	16	1	184	0	159	2015-09-26T23:54:25+0200	12	148	13
94	2015-09-27T00:22:31+0200	5	0	62	2	58	2015-09-27T00:22:31+0200	2	149	2
90	2015-09-27T00:36:39+0200	49	6	477	3	99	2015-09-27T00:36:39+0200	64	150	314
86	2015-09-27T00:39:48+0200	7	6	66	0	48	2015-09-27T00:39:48+0200	11	151	7
87	2015-12-02T17:21:51+0100	104	42	2666	5	2540	2015-09-27T00:53:44+0200	65	152	61
86	2015-09-27T01:25:02+0200	5	1	81	0	6	2015-09-27T01:25:02+0200	12	153	63
86	2015-10-06T22:15:49+0200	2	0	24	0	1	2015-09-27T02:17:12+0200	2	154	21
97	2015-09-27T02:28:24+0200	12	3	243	2	234	2015-09-27T02:28:24+0200	8	155	1
96	2015-09-27T03:46:47+0200	9	0	269	0	246	2015-09-27T03:46:47+0200	17	158	6
99	2015-09-27T03:48:05+0200	3	1	42	0	34	2015-09-27T03:48:05+0200	7	159	1
94	2015-09-27T03:54:18+0200	9	0	68	0	36	2015-09-27T03:54:18+0200	12	160	20
104	2015-09-27T03:59:22+0200	4	1	26	0	21	2015-09-27T03:59:22+0200	2	161	3
90	2015-09-27T04:20:47+0200	24	6	294	3	226	2015-09-27T04:20:47+0200	32	162	36
104	2015-09-27T07:47:12+0200	5	0	28	0	8	2015-09-27T07:47:12+0200	9	164	11
90	2015-09-27T08:01:01+0200	12	2	108	0	96	2015-09-27T08:01:01+0200	5	165	7
111	2015-09-27T09:09:52+0200	19	0	185	2	161	2015-09-27T09:09:52+0200	15	166	9
86	2015-09-27T09:12:51+0200	10	3	156	0	147	2015-09-27T09:12:51+0200	5	167	4
86	2015-09-27T09:28:04+0200	7	0	91	0	75	2015-09-27T09:28:04+0200	11	168	5
86	2015-09-27T09:28:30+0200	14	0	77	0	60	2015-09-27T09:28:30+0200	5	169	12
86	2015-09-27T09:34:34+0200	18	0	173	1	27	2015-09-27T09:34:34+0200	13	170	133
104	2015-09-27T09:48:56+0200	5	0	83	0	79	2015-09-27T09:48:56+0200	2	171	2
95	2015-09-27T10:01:42+0200	18	5	189	1	156	2015-09-27T10:01:42+0200	15	172	18
104	2015-09-27T10:05:08+0200	4	1	20	0	16	2015-09-27T10:05:08+0200	2	173	2
86	2015-09-27T10:06:19+0200	1	0	34	0	25	2015-09-27T10:06:19+0200	4	174	5
90	2015-09-27T10:08:42+0200	8	3	79	0	59	2015-09-27T10:08:42+0200	9	175	11
106	2015-09-27T10:15:07+0200	13	2	144	1	89	2015-09-27T10:15:07+0200	15	176	40
96	2015-09-27T10:34:37+0200	43	10	1754	2	1691	2015-09-27T10:34:37+0200	31	177	32
99	2015-09-27T10:44:46+0200	1	0	9	0	8	2015-09-27T10:44:46+0200	1	178	0
99	2015-09-27T10:59:07+0200	0	0	13	0	11	2015-09-27T10:59:07+0200	1	179	1
106	2015-09-27T11:03:45+0200	5	0	34	2	26	2015-09-27T11:03:45+0200	3	180	5
100	2015-12-02T22:14:32+0100	15	2	180	2	125	2015-09-27T11:08:03+0200	16	181	39
97	2015-09-27T11:20:50+0200	31	5	198	1	123	2015-09-27T11:20:50+0200	26	182	49
86	2015-12-02T17:04:01+0100	11	0	241	0	221	2015-09-27T11:37:45+0200	12	183	8
86	2015-09-27T12:27:59+0200	2	1	28	0	13	2015-09-27T12:27:59+0200	8	184	7
100	2015-09-27T13:38:05+0200	10	0	102	0	28	2015-09-27T13:38:05+0200	10	185	64
99	2015-09-27T14:11:14+0200	8	0	72	0	66	2015-09-27T14:11:14+0200	4	186	2
86	2015-12-02T17:08:29+0100	5	0	134	0	124	2015-09-27T14:15:24+0200	7	187	3
88	2015-09-27T14:27:50+0200	5	0	30	0	26	2015-09-27T14:27:50+0200	3	188	1
109	2015-09-27T14:57:17+0200	3	1	51	0	39	2015-09-27T14:57:17+0200	6	189	6
110	2015-09-27T15:06:19+0200	4	0	33	0	18	2015-09-27T15:06:19+0200	10	190	5
97	2015-09-27T15:15:27+0200	4	0	17	0	5	2015-09-27T15:15:27+0200	2	191	10
99	2015-09-27T15:50:08+0200	1	0	9	0	3	2015-09-27T15:50:08+0200	3	192	3
99	2015-09-27T16:09:07+0200	0	2	38	0	15	2015-09-27T16:09:07+0200	5	193	18
86	2015-09-27T17:56:38+0200	9	1	192	0	175	2015-09-27T17:56:38+0200	8	194	9
87	2015-12-02T17:24:10+0100	38	12	620	0	514	2015-09-27T18:34:50+0200	41	195	65
87	2015-12-02T17:27:49+0100	15	5	216	0	184	2015-09-27T18:39:20+0200	25	196	7
87	2015-09-27T18:47:54+0200	1	3	79	0	75	2015-09-27T18:47:54+0200	3	197	1
90	2015-09-27T19:24:01+0200	15	4	592	3	321	2015-09-27T19:20:15+0200	9	198	262
86	2015-09-27T19:24:19+0200	5	1	74	0	64	2015-09-27T19:24:19+0200	2	199	8
103	2015-09-27T19:52:16+0200	1	0	18	0	17	2015-09-27T19:52:16+0200	0	200	1
99	2015-09-27T19:58:01+0200	2	1	26	0	25	2015-09-27T19:58:01+0200	1	201	0
90	2015-09-27T20:14:31+0200	0	1	29	0	15	2015-09-27T20:14:31+0200	7	202	7
103	2015-09-27T20:59:58+0200	5	0	30	0	13	2015-09-27T20:59:58+0200	9	204	8
94	2015-09-27T21:02:15+0200	6	1	39	0	32	2015-09-27T21:02:15+0200	6	205	1
87	2015-09-27T21:10:56+0200	5	0	48	0	31	2015-09-27T21:10:56+0200	12	206	5
90	2015-09-27T21:32:32+0200	9	0	84	2	14	2015-09-27T21:32:32+0200	5	207	65
87	2015-12-02T17:29:24+0100	10	3	178	0	137	2015-09-27T21:55:29+0200	23	208	18
90	2015-09-27T23:25:34+0200	2	0	20	0	12	2015-09-27T23:25:34+0200	2	209	6
103	2015-09-27T23:56:21+0200	2	0	18	0	11	2015-09-27T23:56:21+0200	6	210	1
100	2015-09-28T00:42:07+0200	0	1	15	0	14	2015-09-28T00:42:07+0200	1	211	0
107	2015-09-28T01:09:15+0200	4	1	44	0	28	2015-09-28T01:08:07+0200	5	212	11
99	2015-09-28T01:33:43+0200	5	0	28	1	6	2015-09-28T01:13:15+0200	12	213	10
99	2015-09-28T01:34:13+0200	1	0	5	0	2	2015-09-28T01:23:58+0200	3	214	0
91	2015-09-28T06:04:09+0200	5	0	63	0	24	2015-09-28T06:04:09+0200	17	215	22
95	2015-09-28T06:17:10+0200	2	2	37	0	18	2015-09-28T06:17:10+0200	16	216	3
99	2015-09-28T06:26:58+0200	0	0	14	0	13	2015-09-28T06:26:58+0200	1	217	0
99	2015-09-28T06:38:15+0200	0	0	5	0	5	2015-09-28T06:38:15+0200	0	218	0
99	2015-09-28T08:21:55+0200	5	0	157	0	144	2015-09-28T08:21:55+0200	6	220	7
107	2015-09-28T09:43:33+0200	11	0	84	0	16	2015-09-28T08:51:40+0200	10	221	58
94	2015-09-28T10:10:04+0200	3	0	20	1	0	2015-09-28T10:10:04+0200	7	222	13
94	2015-09-28T10:17:27+0200	5	0	24	0	18	2015-09-28T10:16:07+0200	5	223	1
90	2015-09-28T10:27:57+0200	3	0	35	0	30	2015-09-28T10:20:32+0200	2	224	3
97	2015-09-28T10:28:24+0200	0	0	9	0	4	2015-09-28T10:28:24+0200	5	225	0
88	2015-09-28T10:30:24+0200	3	2	73	0	71	2015-09-28T10:29:09+0200	1	226	1
86	2015-09-28T10:50:20+0200	3	2	42	0	3	2015-09-28T10:50:20+0200	6	227	33
99	2015-09-28T10:54:09+0200	2	0	30	0	28	2015-09-28T10:54:09+0200	1	228	1
88	2015-09-28T11:16:53+0200	3	0	23	0	15	2015-09-28T11:16:53+0200	6	229	2
104	2015-09-28T11:18:26+0200	2	1	10	0	7	2015-09-28T11:18:26+0200	1	230	2
110	2015-09-28T11:21:19+0200	3	1	34	0	24	2015-09-28T11:21:19+0200	7	231	3
97	2015-09-28T11:27:07+0200	6	0	22	0	12	2015-09-28T11:27:07+0200	3	232	7
90	2015-09-28T11:27:57+0200	0	0	24	0	24	2015-09-28T11:27:57+0200	0	233	0
86	2015-09-28T11:49:30+0200	5	0	70	0	68	2015-09-28T11:49:30+0200	0	234	2
86	2015-09-28T12:23:51+0200	1	0	18	0	2	2015-09-28T12:23:51+0200	4	235	12
99	2015-09-28T12:55:40+0200	4	1	17	1	14	2015-09-28T12:55:40+0200	2	236	1
103	2015-09-28T12:56:22+0200	3	2	32	0	23	2015-09-28T12:56:22+0200	6	237	3
103	2015-09-28T13:07:17+0200	1	0	17	0	13	2015-09-28T13:07:17+0200	1	238	3
87	2015-09-28T13:07:42+0200	6	0	129	0	113	2015-09-28T13:07:42+0200	6	239	10
99	2015-09-28T13:39:55+0200	2	1	25	0	25	2015-09-28T13:39:55+0200	0	240	0
86	2015-09-28T13:59:02+0200	3	2	51	1	45	2015-09-28T13:59:02+0200	5	241	1
99	2015-09-28T13:59:44+0200	4	0	20	0	9	2015-09-28T13:59:44+0200	3	242	8
107	2015-09-28T14:18:57+0200	7	0	83	4	78	2015-09-28T14:18:57+0200	0	243	5
91	2015-09-28T14:20:06+0200	2	0	81	1	64	2015-09-28T14:20:06+0200	5	244	12
87	2015-09-28T14:58:38+0200	12	1	116	0	72	2015-09-28T14:58:38+0200	27	245	17
104	2015-09-28T15:19:25+0200	1	0	12	0	10	2015-09-28T15:14:57+0200	1	247	1
87	2015-10-01T11:22:01+0200	0	0	13	0	12	2015-09-28T15:24:59+0200	1	249	0
103	2015-09-28T15:33:56+0200	7	0	93	3	81	2015-09-28T15:33:56+0200	10	250	2
86	2015-09-28T15:49:45+0200	7	0	76	0	63	2015-09-28T15:49:45+0200	3	251	10
109	2015-09-28T16:20:21+0200	6	0	23	0	10	2015-09-28T15:59:35+0200	8	252	5
103	2015-09-28T16:14:24+0200	0	3	20	0	17	2015-09-28T16:14:24+0200	3	253	0
87	2015-09-28T16:36:49+0200	5	1	38	1	31	2015-09-28T16:36:49+0200	5	254	2
87	2015-09-28T16:42:33+0200	6	0	27	0	9	2015-09-28T16:39:28+0200	6	255	12
104	2015-10-03T17:20:33+0200	2	0	5	0	5	2015-09-28T16:42:57+0200	0	256	0
86	2015-09-28T16:50:04+0200	7	0	56	0	11	2015-09-28T16:50:04+0200	17	257	28
91	2015-09-28T18:17:40+0200	2	0	31	0	8	2015-09-28T18:17:40+0200	9	258	14
97	2015-09-28T18:29:55+0200	6	1	30	0	26	2015-09-28T18:27:02+0200	3	259	1
86	2015-09-28T18:31:45+0200	4	0	61	0	50	2015-09-28T18:31:45+0200	4	260	7
87	2015-09-28T18:50:17+0200	3	1	65	0	64	2015-09-28T18:50:17+0200	1	261	0
94	2015-09-28T18:57:14+0200	4	0	12	0	9	2015-09-28T18:57:14+0200	0	262	3
86	2015-09-28T20:02:39+0200	2	0	17	0	3	2015-09-28T20:02:39+0200	7	263	7
99	2015-09-28T20:20:20+0200	1	0	12	0	8	2015-09-28T20:20:20+0200	0	264	4
90	2015-09-28T20:25:23+0200	74	22	3295	3	1824	2015-09-28T20:25:23+0200	68	265	1403
86	2015-09-28T20:57:45+0200	11	0	103	1	21	2015-09-28T20:57:45+0200	10	266	72
94	2015-09-28T20:59:31+0200	4	0	30	0	19	2015-09-28T20:59:31+0200	5	267	6
97	2015-09-28T21:10:12+0200	4	1	48	0	48	2015-09-28T21:08:46+0200	0	268	0
95	2015-09-28T21:25:54+0200	0	1	66	0	65	2015-09-28T21:25:54+0200	1	269	0
97	2015-09-28T21:30:11+0200	3	0	39	0	37	2015-09-28T21:30:11+0200	2	270	0
86	2015-09-28T22:50:23+0200	6	1	132	1	121	2015-09-28T22:50:23+0200	6	271	5
110	2015-09-28T22:56:13+0200	13	2	76	4	73	2015-09-28T22:56:13+0200	3	272	0
86	2015-09-28T23:07:54+0200	4	2	85	0	77	2015-09-28T23:07:54+0200	7	273	1
91	2015-09-29T00:17:19+0200	1	0	8	4	4	2015-09-29T00:10:40+0200	4	274	0
95	2015-09-29T00:47:07+0200	2	0	19	4	18	2015-09-29T00:33:27+0200	0	275	1
107	2015-09-29T01:33:47+0200	5	0	25	5	17	2015-09-29T01:33:47+0200	5	276	3
111	2015-09-29T01:41:24+0200	3	3	112	1	103	2015-09-29T01:41:24+0200	3	277	6
90	2015-09-29T05:58:22+0200	3	0	13	0	9	2015-09-29T05:58:22+0200	2	278	2
99	2015-09-29T08:44:52+0200	3	0	15	0	13	2015-09-29T08:40:23+0200	2	279	0
87	2015-09-29T08:44:11+0200	6	0	41	2	30	2015-09-29T08:44:11+0200	1	280	10
95	2015-09-29T09:13:54+0200	1	0	15	0	14	2015-09-29T09:13:54+0200	0	281	1
95	2015-09-29T09:20:58+0200	2	0	14	0	10	2015-09-29T09:20:58+0200	2	282	2
88	2015-09-29T10:05:54+0200	3	0	22	0	17	2015-09-29T10:05:54+0200	5	283	0
99	2015-09-29T10:40:33+0200	1	0	8	1	4	2015-09-29T10:40:33+0200	2	285	2
86	2015-09-29T10:43:47+0200	3	0	24	0	17	2015-09-29T10:43:47+0200	3	286	4
99	2015-09-29T10:48:51+0200	1	0	20	0	20	2015-09-29T10:47:47+0200	0	287	0
103	2015-09-29T11:00:09+0200	1	0	7	0	4	2015-09-29T10:58:57+0200	0	288	3
86	2015-09-29T15:41:44+0200	6	2	83	5	69	2015-09-29T11:06:54+0200	11	289	3
90	2015-09-29T11:08:44+0200	3	0	20	0	0	2015-09-29T11:07:35+0200	0	290	20
106	2015-09-29T11:17:06+0200	4	0	37	2	5	2015-09-29T11:17:06+0200	2	291	30
86	2015-09-29T11:17:10+0200	3	0	35	0	11	2015-09-29T11:17:10+0200	3	292	21
94	2015-09-29T11:23:47+0200	1	0	11	0	5	2015-09-29T11:23:47+0200	2	293	4
86	2015-09-29T11:26:08+0200	5	0	54	0	24	2015-09-29T11:26:08+0200	12	294	18
99	2015-09-30T11:53:20+0200	2	0	13	0	9	2015-09-29T11:31:19+0200	2	295	2
103	2015-09-29T12:27:29+0200	3	0	8	3	6	2015-09-29T12:23:02+0200	0	296	2
86	2015-09-29T13:53:41+0200	1	0	26	0	18	2015-09-29T13:50:57+0200	6	297	2
90	2015-09-29T14:07:36+0200	5	0	25	0	11	2015-09-29T14:07:36+0200	9	298	5
86	2015-09-29T14:13:09+0200	2	0	34	0	4	2015-09-29T14:12:44+0200	5	299	25
96	2015-10-07T11:20:43+0200	3	0	26	0	12	2015-09-29T14:21:50+0200	7	300	7
97	2015-09-29T14:48:52+0200	2	0	15	1	14	2015-09-29T14:48:52+0200	0	301	1
86	2015-09-29T15:10:41+0200	5	1	52	0	47	2015-09-29T15:10:41+0200	3	302	2
110	2015-09-29T15:50:19+0200	0	0	13	0	8	2015-09-29T15:50:19+0200	2	303	3
86	2015-09-29T16:10:33+0200	2	0	22	0	22	2015-09-29T16:10:33+0200	0	304	0
90	2015-09-29T16:14:32+0200	2	1	19	0	13	2015-09-29T16:14:32+0200	2	305	4
103	2015-09-29T17:16:54+0200	11	2	34	1	24	2015-09-29T17:16:54+0200	5	306	5
86	2015-12-02T17:10:22+0100	11	0	165	0	151	2015-09-29T17:31:19+0200	6	307	8
86	2015-09-29T18:11:15+0200	1	1	42	0	37	2015-09-29T18:11:15+0200	2	308	3
86	2015-09-29T18:22:58+0200	1	0	25	0	23	2015-09-29T18:22:58+0200	2	309	0
97	2015-09-29T18:44:52+0200	1	0	16	0	3	2015-09-29T18:44:52+0200	7	310	6
90	2015-09-29T18:54:26+0200	1	0	29	0	16	2015-09-29T18:54:26+0200	1	311	12
91	2015-09-29T18:58:00+0200	1	0	7	0	2	2015-09-29T18:58:00+0200	5	312	0
99	2015-09-29T19:14:02+0200	0	0	11	0	9	2015-09-29T19:14:02+0200	1	313	1
97	2015-09-29T19:16:39+0200	0	0	9	0	6	2015-09-29T19:16:39+0200	2	314	1
103	2015-09-29T19:43:11+0200	5	0	13	1	8	2015-09-29T19:43:11+0200	3	315	2
109	2015-09-29T19:43:20+0200	5	1	25	0	22	2015-09-29T19:43:20+0200	2	316	1
90	2015-09-29T22:15:04+0200	2	0	18	0	13	2015-09-29T20:38:50+0200	2	317	3
86	2015-09-29T20:51:31+0200	2	0	26	0	25	2015-09-29T20:51:31+0200	1	318	0
94	2015-09-29T21:08:45+0200	3	0	18	0	1	2015-09-29T21:08:45+0200	11	319	6
94	2015-09-29T21:10:48+0200	6	0	37	0	9	2015-09-29T21:10:48+0200	7	320	21
88	2015-09-29T22:21:31+0200	3	0	49	0	47	2015-09-29T22:21:31+0200	2	321	0
103	2015-09-29T22:42:58+0200	1	0	6	0	1	2015-09-29T22:42:58+0200	4	322	1
90	2015-09-29T22:46:57+0200	4	0	40	1	21	2015-09-29T22:46:57+0200	4	323	15
86	2015-09-29T23:10:14+0200	3	0	18	0	13	2015-09-29T23:10:14+0200	3	324	2
106	2015-09-29T23:15:51+0200	0	0	7	0	6	2015-09-29T23:15:51+0200	1	325	0
95	2015-09-29T23:19:59+0200	1	0	17	0	11	2015-09-29T23:19:59+0200	3	326	3
90	2015-09-30T00:00:07+0200	3	0	52	3	49	2015-09-29T23:59:41+0200	2	327	1
99	2015-09-30T00:02:19+0200	2	0	5	0	0	2015-09-30T00:02:19+0200	3	328	2
87	2015-09-30T00:45:42+0200	0	0	31	0	28	2015-09-30T00:45:42+0200	2	329	1
103	2015-09-30T01:03:57+0200	6	1	14	0	7	2015-09-30T01:03:57+0200	2	330	5
87	2015-09-30T01:11:39+0200	6	0	69	0	63	2015-09-30T01:11:39+0200	4	331	2
90	2015-09-30T01:18:20+0200	8	0	40	2	4	2015-09-30T01:13:18+0200	2	332	34
96	2015-09-30T02:48:16+0200	6	1	61	1	55	2015-09-30T02:48:16+0200	3	333	3
99	2015-09-30T03:33:25+0200	2	0	11	0	2	2015-09-30T03:33:25+0200	3	334	6
86	2015-09-30T09:22:33+0200	1	0	16	0	7	2015-09-30T09:22:33+0200	6	335	3
99	2015-09-30T09:28:13+0200	4	0	27	0	26	2015-09-30T09:28:13+0200	0	336	1
86	2015-09-30T09:49:17+0200	2	0	21	0	12	2015-09-30T09:49:17+0200	3	337	6
109	2015-09-30T10:02:42+0200	2	1	13	3	11	2015-09-30T10:02:42+0200	1	338	1
86	2015-09-30T10:41:49+0200	1	0	21	0	21	2015-09-30T10:41:49+0200	0	340	0
99	2015-09-30T10:44:32+0200	1	0	12	0	7	2015-09-30T10:44:32+0200	3	341	2
111	2015-09-30T10:56:25+0200	1	0	45	0	42	2015-09-30T10:56:25+0200	3	342	0
103	2015-09-30T12:42:17+0200	1	0	4	0	1	2015-09-30T11:01:11+0200	1	343	2
110	2015-09-30T11:39:07+0200	3	0	13	0	9	2015-09-30T11:39:07+0200	2	344	2
90	2015-09-30T12:17:25+0200	6	1	59	0	54	2015-09-30T12:17:25+0200	2	345	3
87	2015-09-30T12:17:58+0200	2	1	22	0	20	2015-09-30T12:17:58+0200	1	346	1
97	2015-09-30T12:31:49+0200	2	0	43	0	37	2015-09-30T12:26:03+0200	1	347	5
90	2015-09-30T13:03:26+0200	2	0	10	0	7	2015-09-30T13:03:26+0200	3	348	0
86	2015-09-30T13:21:50+0200	1	0	13	0	8	2015-09-30T13:21:50+0200	2	350	3
86	2015-09-30T13:29:17+0200	1	0	36	0	31	2015-09-30T13:27:31+0200	3	351	2
86	2015-09-30T13:31:24+0200	6	2	34	0	9	2015-09-30T13:31:24+0200	8	352	17
111	2015-09-30T13:55:15+0200	4	3	70	0	65	2015-09-30T13:55:15+0200	0	353	5
97	2015-09-30T14:27:55+0200	0	0	11	0	8	2015-09-30T14:26:43+0200	2	354	1
104	2015-09-30T14:30:35+0200	1	0	13	0	6	2015-09-30T14:30:35+0200	4	355	3
106	2015-09-30T15:39:16+0200	3	1	17	0	8	2015-09-30T15:39:16+0200	6	356	3
86	2015-09-30T16:00:55+0200	1	0	16	0	12	2015-09-30T16:00:55+0200	2	357	2
90	2015-09-30T18:34:07+0200	5	0	24	0	14	2015-09-30T18:34:07+0200	8	358	2
86	2015-09-30T20:42:11+0200	2	1	27	0	9	2015-09-30T20:42:11+0200	4	359	14
96	2015-09-30T22:03:32+0200	1	0	15	0	12	2015-09-30T22:03:32+0200	2	360	1
103	2015-09-30T22:26:33+0200	4	0	13	0	11	2015-09-30T22:26:33+0200	2	361	0
100	2015-09-30T23:01:39+0200	2	0	26	0	22	2015-09-30T23:01:39+0200	1	363	3
86	2015-10-01T08:47:41+0200	4	1	98	0	90	2015-10-01T08:46:48+0200	4	364	4
100	2015-10-01T09:04:02+0200	2	0	43	0	39	2015-10-01T09:04:02+0200	3	365	1
100	2015-10-01T18:48:47+0200	6	1	42	0	16	2015-10-01T09:06:46+0200	7	366	19
103	2015-10-01T09:27:46+0200	8	1	28	1	20	2015-10-01T09:27:46+0200	3	367	5
86	2015-10-01T09:46:06+0200	4	0	50	1	38	2015-10-01T09:46:06+0200	8	368	4
91	2015-10-01T10:01:30+0200	6	1	136	5	131	2015-10-01T10:01:30+0200	1	369	4
90	2015-10-14T17:31:00+0200	4	0	9	0	6	2015-10-01T12:08:42+0200	2	370	1
94	2015-10-01T14:14:35+0200	5	0	24	0	14	2015-10-01T14:14:35+0200	7	371	3
86	2015-10-01T14:37:05+0200	2	0	16	0	12	2015-10-01T14:37:05+0200	3	372	1
86	2015-10-01T14:50:47+0200	2	0	18	0	12	2015-10-01T14:50:47+0200	2	373	4
86	2015-10-01T15:31:30+0200	4	2	10	0	3	2015-10-01T15:23:21+0200	0	374	7
96	2015-10-01T15:45:21+0200	1	0	9	0	2	2015-10-01T15:45:21+0200	7	375	0
100	2015-10-01T15:49:31+0200	2	0	11	0	10	2015-10-01T15:49:31+0200	0	376	1
87	2015-10-01T15:49:34+0200	5	0	19	0	8	2015-10-01T15:49:34+0200	4	377	7
87	2015-10-01T17:16:58+0200	5	1	77	2	65	2015-10-01T17:16:58+0200	7	378	5
90	2015-10-01T17:24:17+0200	5	0	44	0	42	2015-10-01T17:24:17+0200	1	379	1
103	2015-10-01T17:42:37+0200	1	0	12	0	1	2015-10-01T17:35:16+0200	9	381	2
107	2015-10-01T20:37:56+0200	0	0	8	0	1	2015-10-01T20:37:56+0200	0	382	7
99	2015-10-01T20:45:24+0200	1	0	6	0	3	2015-10-01T20:45:24+0200	1	383	2
86	2015-10-01T23:38:25+0200	1	1	21	0	19	2015-10-01T23:38:25+0200	1	384	1
94	2015-10-02T09:05:58+0200	6	0	23	1	14	2015-10-02T09:05:58+0200	5	385	4
103	2015-10-02T11:51:51+0200	1	0	10	0	6	2015-10-02T11:51:51+0200	1	386	3
87	2015-10-02T14:55:51+0200	2	0	22	1	17	2015-10-02T14:10:09+0200	2	387	3
86	2015-10-02T16:37:39+0200	3	0	55	0	2	2015-10-02T16:37:39+0200	3	388	50
90	2015-10-02T16:56:17+0200	6	0	1921	0	1885	2015-10-02T16:56:17+0200	18	389	18
86	2015-10-02T16:58:44+0200	2	0	19	0	0	2015-10-02T16:58:44+0200	4	390	15
86	2015-10-14T14:23:37+0200	1	0	11	0	9	2015-10-02T17:04:23+0200	2	391	0
100	2015-12-02T22:12:12+0100	8	2	2005	1	1973	2015-10-02T17:42:19+0200	27	392	5
100	2015-10-02T17:44:00+0200	12	1	2080	0	2051	2015-10-02T17:44:00+0200	26	393	3
91	2015-10-02T18:19:50+0200	6	3	529	2	503	2015-10-02T18:10:58+0200	7	394	19
91	2015-10-02T18:17:33+0200	2	1	401	0	381	2015-10-02T18:15:11+0200	3	395	17
86	2015-10-02T18:22:37+0200	1	0	41	0	36	2015-10-02T18:22:37+0200	2	396	3
91	2015-10-03T22:01:01+0200	1	0	5	0	4	2015-10-02T19:42:01+0200	0	397	1
94	2015-10-03T04:08:18+0200	0	1	9	0	7	2015-10-03T04:04:52+0200	2	399	0
104	2015-10-03T08:55:17+0200	1	0	4	0	1	2015-10-03T08:55:17+0200	1	400	2
88	2015-10-03T10:58:38+0200	6	0	26	0	12	2015-10-03T10:58:38+0200	5	401	9
86	2015-10-03T16:10:59+0200	4	0	28	0	1	2015-10-03T16:10:59+0200	2	402	25
99	2015-10-03T16:13:11+0200	1	0	5	0	2	2015-10-03T16:13:11+0200	3	403	0
90	2015-10-03T16:29:17+0200	2	0	17	0	7	2015-10-03T16:29:17+0200	3	404	7
103	2015-10-03T18:31:53+0200	0	0	7	0	2	2015-10-03T18:31:53+0200	0	405	5
103	2015-10-03T18:32:11+0200	1	0	6	0	0	2015-10-03T18:32:11+0200	0	406	6
86	2015-10-03T23:04:09+0200	4	0	30	0	9	2015-10-03T23:04:09+0200	7	407	14
103	2015-10-04T00:48:52+0200	0	0	8	2	7	2015-10-03T23:55:00+0200	0	408	1
86	2015-10-04T08:40:43+0200	0	0	17	0	14	2015-10-04T08:40:43+0200	1	409	2
86	2015-10-04T08:49:43+0200	0	0	15	0	11	2015-10-04T08:49:43+0200	3	410	1
87	2015-10-04T12:17:30+0200	4	0	34	0	34	2015-10-04T12:17:30+0200	0	411	0
91	2015-10-04T12:35:16+0200	1	0	12	0	8	2015-10-04T12:35:16+0200	2	412	2
100	2015-10-06T22:10:55+0200	0	0	6	0	5	2015-10-04T16:01:08+0200	0	413	1
100	2015-10-06T22:12:39+0200	0	0	8	0	6	2015-10-04T16:01:13+0200	0	414	2
97	2015-10-04T19:11:20+0200	0	0	8	0	5	2015-10-04T19:11:20+0200	3	415	0
96	2015-10-05T00:31:40+0200	1	0	16	0	14	2015-10-05T00:31:40+0200	1	416	1
111	2015-10-05T00:47:28+0200	39	4	839	0	822	2015-10-05T00:47:28+0200	5	417	12
95	2015-10-05T21:56:08+0200	6	0	10	3	6	2015-10-05T01:28:38+0200	2	418	2
104	2015-10-06T12:04:17+0200	2	0	4	0	2	2015-10-05T11:42:10+0200	2	419	0
99	2015-10-05T11:48:28+0200	0	1	10	0	8	2015-10-05T11:48:28+0200	1	420	1
104	2015-10-05T14:29:19+0200	0	0	7	0	6	2015-10-05T14:29:19+0200	1	421	0
104	2015-10-05T14:34:02+0200	1	0	7	0	7	2015-10-05T14:34:02+0200	0	422	0
86	2015-12-02T17:12:32+0100	0	2	160	0	156	2015-10-05T15:10:27+0200	1	423	3
99	2015-10-05T15:26:11+0200	2	1	80	0	78	2015-10-05T15:26:11+0200	0	424	2
97	2015-10-05T15:35:28+0200	13	7	945	0	762	2015-10-05T15:35:28+0200	131	425	52
111	2015-10-05T15:42:05+0200	4	1	174	0	154	2015-10-05T15:42:05+0200	12	426	8
111	2015-10-05T15:45:34+0200	5	1	153	0	117	2015-10-05T15:45:34+0200	11	427	25
86	2015-10-05T16:07:44+0200	0	0	11	0	10	2015-10-05T16:07:44+0200	1	428	0
86	2015-10-05T16:18:37+0200	0	0	9	0	5	2015-10-05T16:18:37+0200	4	429	0
90	2015-10-05T17:15:49+0200	0	1	225	0	220	2015-10-05T17:15:49+0200	5	430	0
90	2015-10-05T17:19:28+0200	3	0	202	0	200	2015-10-05T17:19:28+0200	2	431	0
86	2015-12-02T17:15:09+0100	7	1	410	3	394	2015-10-05T17:22:54+0200	7	432	9
86	2015-10-05T18:21:48+0200	3	0	302	0	280	2015-10-05T17:25:06+0200	2	433	20
103	2015-10-05T19:30:19+0200	1	0	3	0	1	2015-10-05T19:30:19+0200	2	434	0
86	2015-10-05T19:52:12+0200	4	2	186	0	176	2015-10-05T19:52:12+0200	7	435	3
95	2015-10-05T22:08:35+0200	2	0	21	0	20	2015-10-05T22:08:35+0200	0	436	1
86	2015-10-06T01:07:13+0200	1	0	49	0	43	2015-10-06T01:06:31+0200	4	437	2
86	2015-10-06T10:59:12+0200	8	0	64	0	61	2015-10-06T10:59:12+0200	1	438	2
99	2015-10-06T11:29:12+0200	5	0	9	0	7	2015-10-06T11:29:12+0200	0	439	2
86	2015-10-06T11:39:41+0200	5	0	16	0	6	2015-10-06T11:39:41+0200	3	440	7
99	2015-10-06T12:00:34+0200	0	1	13	0	13	2015-10-06T12:00:34+0200	0	441	0
96	2015-10-06T12:19:01+0200	1	0	8	0	8	2015-10-06T12:19:01+0200	0	442	0
103	2015-10-06T14:06:11+0200	2	0	7	0	2	2015-10-06T14:06:11+0200	2	443	3
104	2015-10-06T14:25:57+0200	6	0	24	0	21	2015-10-06T14:25:57+0200	1	444	2
91	2015-10-06T14:34:08+0200	0	0	26	0	8	2015-10-06T14:34:08+0200	1	445	17
86	2015-10-06T14:37:24+0200	0	0	25	0	25	2015-10-06T14:37:24+0200	0	446	0
86	2015-10-06T14:53:09+0200	0	0	10	0	7	2015-10-06T14:53:09+0200	2	447	1
91	2015-10-06T18:02:58+0200	1	0	8	0	7	2015-10-06T18:02:58+0200	0	448	1
103	2015-10-06T21:56:54+0200	0	0	8	0	8	2015-10-06T21:56:54+0200	0	449	0
100	2015-10-07T00:54:48+0200	7	2	838	6	829	2015-10-07T00:54:48+0200	7	450	2
90	2015-10-07T07:09:31+0200	0	0	8	0	4	2015-10-07T07:09:31+0200	3	451	1
90	2015-10-07T09:29:51+0200	2	0	227	0	210	2015-10-07T09:29:51+0200	5	452	12
96	2015-10-07T10:55:05+0200	0	0	9	0	8	2015-10-07T10:55:05+0200	0	453	1
96	2015-10-07T11:03:12+0200	6	0	9	0	4	2015-10-07T11:03:12+0200	1	454	4
88	2015-10-07T11:12:57+0200	4	0	27	0	24	2015-10-07T11:12:57+0200	1	455	2
86	2015-10-07T12:19:58+0200	4	0	39	0	31	2015-10-07T12:16:14+0200	2	456	6
86	2015-10-07T12:55:48+0200	1	0	12	0	6	2015-10-07T12:55:48+0200	5	457	1
96	2015-10-07T14:57:47+0200	1	0	4	0	0	2015-10-07T14:57:47+0200	1	458	3
103	2015-10-07T17:06:50+0200	3	1	16	0	14	2015-10-07T17:06:50+0200	1	459	1
86	2015-10-07T17:57:16+0200	3	0	21	0	17	2015-10-07T17:57:16+0200	1	460	3
90	2015-10-08T12:15:23+0200	3	0	10	0	4	2015-10-07T19:57:41+0200	0	461	6
103	2015-10-07T20:19:01+0200	1	0	7	0	3	2015-10-07T20:19:01+0200	1	462	3
106	2015-10-07T20:21:41+0200	5	0	13	0	5	2015-10-07T20:21:41+0200	5	463	3
100	2015-10-07T21:35:23+0200	0	0	4	0	2	2015-10-07T21:35:23+0200	1	464	1
97	2015-10-07T22:20:03+0200	0	0	30	0	30	2015-10-07T22:20:03+0200	0	465	0
106	2015-10-08T08:51:29+0200	1	0	6	0	0	2015-10-08T08:51:29+0200	3	466	3
104	2015-10-08T10:40:01+0200	0	0	3	0	3	2015-10-08T10:40:01+0200	0	468	0
96	2015-10-08T10:58:30+0200	2	0	20	0	16	2015-10-08T10:58:30+0200	1	469	3
87	2015-10-08T10:59:00+0200	6	0	36	0	19	2015-10-08T10:59:00+0200	7	470	10
87	2015-10-08T10:59:13+0200	3	1	36	1	28	2015-10-08T10:59:13+0200	4	471	4
104	2015-10-08T11:35:33+0200	0	0	3	0	1	2015-10-08T11:35:33+0200	1	472	1
96	2015-10-08T12:03:14+0200	3	0	29	0	10	2015-10-08T12:03:14+0200	2	474	17
104	2015-10-08T12:24:22+0200	7	0	22	0	19	2015-10-08T12:24:22+0200	1	475	2
86	2015-10-08T13:03:01+0200	2	0	34	0	15	2015-10-08T13:03:01+0200	1	476	18
87	2015-10-08T14:30:29+0200	5	0	34	0	15	2015-10-08T14:30:29+0200	2	477	17
88	2015-10-08T15:30:03+0200	0	0	3	0	0	2015-10-08T15:30:03+0200	1	478	2
90	2015-10-08T15:32:37+0200	1	0	10	0	0	2015-10-08T15:32:37+0200	2	479	8
86	2015-12-02T17:17:19+0100	20	0	1857	0	1850	2015-10-08T16:42:16+0200	4	481	3
91	2015-10-08T18:27:10+0200	2	0	8	7	6	2015-10-08T18:27:10+0200	2	482	0
99	2015-10-08T20:41:28+0200	0	0	5	0	5	2015-10-08T20:41:28+0200	0	483	0
94	2015-10-08T20:58:41+0200	2	1	14	0	14	2015-10-08T20:58:41+0200	0	484	0
86	2015-10-08T22:05:05+0200	1	0	51	0	7	2015-10-08T22:05:05+0200	4	485	40
86	2015-10-08T22:39:30+0200	2	0	14	0	10	2015-10-08T22:39:30+0200	3	486	1
97	2015-10-09T09:11:15+0200	5	1	12	0	8	2015-10-09T09:11:15+0200	2	488	2
104	2015-10-09T09:40:38+0200	0	0	4	0	4	2015-10-09T09:40:38+0200	0	489	0
96	2015-10-09T10:13:20+0200	2	0	6	0	4	2015-10-09T10:13:20+0200	1	490	1
91	2015-10-09T10:45:09+0200	2	0	14	0	12	2015-10-09T10:45:09+0200	0	491	2
88	2015-10-09T11:56:06+0200	5	0	127	0	117	2015-10-09T11:56:06+0200	3	493	7
103	2015-10-09T11:58:24+0200	13	2	274	1	260	2015-10-09T11:58:24+0200	9	494	5
94	2015-10-09T14:11:02+0200	2	0	9	0	8	2015-10-09T14:11:02+0200	0	495	1
87	2015-10-09T14:53:21+0200	5	0	32	0	13	2015-10-09T14:53:21+0200	2	496	17
86	2015-10-09T15:54:43+0200	0	0	17	0	7	2015-10-09T15:54:43+0200	10	497	0
99	2015-10-09T16:12:06+0200	6	0	54	2	7	2015-10-09T16:12:06+0200	4	498	43
90	2015-10-09T16:23:38+0200	1	0	15	0	12	2015-10-09T16:23:38+0200	0	499	3
86	2015-10-09T18:01:48+0200	0	1	13	0	9	2015-10-09T17:44:58+0200	2	500	2
100	2015-10-09T17:52:49+0200	0	0	22	0	3	2015-10-09T17:52:49+0200	1	501	18
106	2015-10-09T18:01:39+0200	2	0	9	0	3	2015-10-09T18:01:39+0200	0	502	6
86	2015-10-09T18:50:54+0200	3	0	24	0	17	2015-10-09T18:50:54+0200	1	503	6
111	2015-10-09T18:52:30+0200	8	0	26	0	14	2015-10-09T18:52:30+0200	8	504	4
90	2015-10-09T20:34:18+0200	2	1	12	0	11	2015-10-09T20:34:18+0200	0	505	1
88	2015-10-09T20:55:48+0200	3	0	14	0	7	2015-10-09T20:55:48+0200	3	506	4
91	2015-10-09T21:47:55+0200	0	0	30	0	17	2015-10-09T21:47:55+0200	0	507	13
91	2015-10-09T21:54:03+0200	0	0	19	0	14	2015-10-09T21:49:21+0200	1	508	4
90	2015-10-09T22:11:20+0200	0	0	6	0	3	2015-10-09T22:11:20+0200	1	509	2
86	2015-10-10T07:33:15+0200	0	1	21	0	18	2015-10-10T07:19:21+0200	2	510	1
90	2015-10-10T11:45:37+0200	1	0	25	0	23	2015-10-10T11:45:37+0200	2	511	0
86	2015-10-10T11:53:48+0200	0	0	14	0	9	2015-10-10T11:53:48+0200	3	512	2
96	2015-10-10T11:57:03+0200	20	5	2327	0	2321	2015-10-10T11:57:03+0200	3	513	3
90	2015-10-10T12:18:24+0200	0	0	23	1	7	2015-10-10T12:18:24+0200	0	514	16
90	2015-10-10T12:58:12+0200	3	0	32	0	12	2015-10-10T12:58:12+0200	2	515	18
97	2015-10-10T13:17:15+0200	0	0	7	0	7	2015-10-10T13:17:15+0200	0	516	0
99	2015-10-10T13:31:46+0200	0	0	4	0	3	2015-10-10T13:31:46+0200	0	517	1
87	2015-10-10T17:17:01+0200	2	0	16	0	16	2015-10-10T17:17:01+0200	0	518	0
99	2015-10-10T17:25:39+0200	2	0	8	4	7	2015-10-10T17:22:58+0200	1	519	0
87	2015-10-10T17:41:36+0200	4	1	23	0	20	2015-10-10T17:41:36+0200	2	520	1
97	2015-10-10T18:03:04+0200	0	0	8	0	8	2015-10-10T17:56:48+0200	0	521	0
90	2015-10-10T18:08:05+0200	1	1	29	0	29	2015-10-10T18:08:05+0200	0	522	0
106	2015-10-10T19:22:43+0200	3	0	6	0	2	2015-10-10T19:22:43+0200	3	523	1
103	2015-10-10T21:52:48+0200	1	0	6	0	3	2015-10-10T21:52:48+0200	1	524	2
104	2015-10-10T22:00:17+0200	2	0	9	0	7	2015-10-10T22:00:17+0200	1	525	1
95	2015-10-10T22:10:49+0200	1	0	9	0	9	2015-10-10T22:10:49+0200	0	526	0
86	2015-10-10T23:11:57+0200	2	0	14	0	13	2015-10-10T23:11:57+0200	0	527	1
88	2015-10-11T04:14:00+0200	2	0	24	1	21	2015-10-11T03:54:44+0200	2	528	1
90	2015-10-11T11:55:34+0200	0	2	10	0	10	2015-10-11T11:55:34+0200	0	529	0
86	2015-10-11T11:58:04+0200	4	0	34	0	15	2015-10-11T11:58:04+0200	7	530	12
97	2015-10-11T12:20:06+0200	2	0	6	0	5	2015-10-11T12:20:06+0200	1	532	0
95	2015-10-11T13:26:18+0200	0	0	4	0	3	2015-10-11T13:26:18+0200	0	533	1
103	2015-10-11T13:52:56+0200	2	0	6	0	3	2015-10-11T13:52:56+0200	2	534	1
97	2015-10-11T13:53:02+0200	0	0	9	0	9	2015-10-11T13:53:02+0200	0	535	0
91	2015-10-11T14:52:42+0200	3	0	11	1	7	2015-10-11T14:52:42+0200	4	537	0
90	2015-10-11T17:02:54+0200	1	0	25	0	5	2015-10-11T17:02:54+0200	3	538	17
88	2015-10-11T20:07:14+0200	0	1	12	0	8	2015-10-11T20:07:14+0200	1	539	3
86	2015-10-11T20:30:04+0200	0	1	17	0	9	2015-10-11T20:30:04+0200	7	540	1
86	2015-10-11T21:50:09+0200	1	0	20	0	17	2015-10-11T21:18:11+0200	2	541	1
86	2015-10-11T21:42:47+0200	1	0	21	0	21	2015-10-11T21:42:47+0200	0	542	0
90	2015-10-12T10:11:26+0200	3	0	8	0	3	2015-10-12T10:11:26+0200	1	543	4
88	2015-10-12T10:13:43+0200	1	0	9	0	8	2015-10-12T10:13:43+0200	0	544	1
110	2015-10-12T13:21:05+0200	4	0	385	0	373	2015-10-12T11:45:19+0200	12	545	0
110	2015-10-12T13:17:10+0200	8	1	388	0	385	2015-10-12T12:07:53+0200	3	546	0
109	2015-10-12T12:12:40+0200	2	1	394	0	387	2015-10-12T12:12:40+0200	7	547	0
87	2015-10-12T13:01:31+0200	4	0	23	0	6	2015-10-12T13:01:31+0200	7	548	10
103	2015-10-12T14:25:30+0200	1	2	18	0	17	2015-10-12T14:25:30+0200	1	549	0
103	2015-10-12T14:33:45+0200	1	2	56	0	55	2015-10-12T14:33:45+0200	1	550	0
103	2015-10-12T14:36:55+0200	0	2	51	0	51	2015-10-12T14:36:55+0200	0	551	0
103	2015-10-12T14:39:47+0200	0	1	55	0	54	2015-10-12T14:39:47+0200	1	552	0
103	2015-10-12T14:41:45+0200	1	0	49	0	49	2015-10-12T14:41:45+0200	0	553	0
103	2015-10-12T14:46:00+0200	1	0	52	0	47	2015-10-12T14:46:00+0200	4	554	1
88	2015-10-12T14:48:41+0200	2	2	75	0	72	2015-10-12T14:48:41+0200	2	555	1
109	2015-10-12T15:00:45+0200	2	0	396	0	388	2015-10-12T15:00:45+0200	3	556	5
109	2015-10-12T15:07:22+0200	0	1	407	0	403	2015-10-12T15:07:22+0200	4	557	0
109	2015-10-12T15:09:26+0200	4	0	415	0	415	2015-10-12T15:09:26+0200	0	558	0
87	2015-10-12T15:12:00+0200	0	0	6	0	0	2015-10-12T15:12:00+0200	0	559	6
86	2015-10-12T15:31:06+0200	2	0	18	0	6	2015-10-12T15:31:06+0200	9	560	3
94	2015-10-12T16:27:19+0200	0	0	207	0	200	2015-10-12T16:27:19+0200	5	561	2
99	2015-10-12T16:56:11+0200	4	0	139	0	120	2015-10-12T16:35:56+0200	13	562	6
94	2015-10-12T17:08:22+0200	1	0	26	0	25	2015-10-12T17:08:22+0200	0	563	1
104	2015-10-12T17:09:13+0200	0	0	8	0	8	2015-10-12T17:09:13+0200	0	564	0
99	2015-10-12T19:46:56+0200	3	0	16	2	12	2015-10-12T19:35:44+0200	2	565	2
99	2015-10-12T20:09:39+0200	0	0	9	0	8	2015-10-12T20:03:02+0200	1	566	0
86	2015-10-12T21:41:46+0200	3	0	34	0	30	2015-10-12T21:41:46+0200	3	567	1
107	2015-10-12T22:27:01+0200	1	0	3	0	0	2015-10-12T22:26:03+0200	0	568	3
88	2015-10-12T22:29:11+0200	1	0	10	0	6	2015-10-12T22:29:11+0200	4	569	0
103	2015-10-12T22:38:05+0200	0	0	3	0	3	2015-10-12T22:38:05+0200	0	570	0
88	2015-10-13T01:02:24+0200	0	0	7	1	7	2015-10-13T00:53:47+0200	0	571	0
107	2015-10-13T10:16:43+0200	0	0	4	0	4	2015-10-13T10:16:43+0200	0	572	0
86	2015-10-13T10:28:32+0200	4	0	38	0	15	2015-10-13T10:28:32+0200	5	573	18
106	2015-10-13T11:55:46+0200	1	0	5	0	3	2015-10-13T11:55:46+0200	1	574	1
99	2015-10-13T12:44:22+0200	0	0	2	0	2	2015-10-13T12:44:22+0200	0	576	0
88	2015-10-13T12:50:55+0200	5	0	8	0	3	2015-10-13T12:50:55+0200	3	577	2
90	2015-10-13T14:45:48+0200	1	0	10	0	7	2015-10-13T14:45:48+0200	2	578	1
86	2015-10-13T15:06:05+0200	0	0	9	0	7	2015-10-13T15:06:05+0200	2	579	0
109	2015-10-13T16:13:18+0200	0	0	3	0	3	2015-10-13T16:13:18+0200	0	580	0
106	2015-10-13T17:03:55+0200	0	0	4	0	2	2015-10-13T17:03:55+0200	2	581	0
94	2015-10-13T17:17:58+0200	1	0	7	0	4	2015-10-13T17:17:58+0200	3	582	0
87	2015-10-13T17:25:05+0200	0	0	10	0	10	2015-10-13T17:25:05+0200	0	583	0
106	2015-10-13T18:08:30+0200	1	0	2	0	1	2015-10-13T18:08:30+0200	1	584	0
94	2015-10-13T18:51:35+0200	1	0	58	0	58	2015-10-13T18:51:35+0200	0	585	0
107	2015-10-13T19:03:10+0200	5	2	107	0	101	2015-10-13T19:03:10+0200	2	587	4
86	2015-10-13T20:20:50+0200	0	0	10	0	8	2015-10-13T20:20:50+0200	2	588	0
94	2015-10-13T20:35:23+0200	5	0	11	0	6	2015-10-13T20:35:23+0200	2	589	3
96	2015-10-13T21:11:16+0200	0	2	9	0	9	2015-10-13T21:11:16+0200	0	590	0
86	2015-10-13T21:45:43+0200	3	1	15	0	14	2015-10-13T21:42:59+0200	1	591	0
86	2015-10-13T23:28:35+0200	0	0	6	0	4	2015-10-13T23:28:35+0200	2	592	0
96	2015-10-14T00:29:43+0200	1	0	6	0	6	2015-10-14T00:22:35+0200	0	593	0
86	2015-10-14T03:14:00+0200	3	0	8	0	7	2015-10-14T03:14:00+0200	1	594	0
86	2015-10-14T08:37:57+0200	2	0	19	0	18	2015-10-14T08:37:57+0200	1	595	0
111	2015-10-14T10:10:43+0200	0	0	8	0	8	2015-10-14T10:10:43+0200	0	596	0
104	2015-10-14T10:25:53+0200	1	0	10	0	10	2015-10-14T10:25:53+0200	0	597	0
88	2015-10-14T10:41:55+0200	7	0	13	0	6	2015-10-14T10:41:55+0200	3	598	4
95	2015-10-14T11:13:47+0200	1	0	6	0	6	2015-10-14T11:13:47+0200	0	599	0
100	2015-10-14T17:34:35+0200	0	0	7	6	4	2015-10-14T11:21:02+0200	2	600	1
86	2015-10-14T11:33:28+0200	1	0	7	0	0	2015-10-14T11:33:28+0200	5	601	2
86	2015-10-14T11:55:48+0200	1	1	16	0	14	2015-10-14T11:55:48+0200	2	602	0
86	2015-10-14T14:10:38+0200	0	0	13	0	1	2015-10-14T14:10:38+0200	2	603	10
103	2015-10-14T14:58:08+0200	2	1	56	0	56	2015-10-14T14:58:08+0200	0	604	0
97	2015-10-14T15:24:04+0200	1	0	6	0	2	2015-10-14T15:24:04+0200	2	605	2
106	2015-10-14T15:44:57+0200	3	1	16	3	14	2015-10-14T15:44:57+0200	1	606	1
97	2015-10-14T15:50:43+0200	0	0	8	0	4	2015-10-14T15:49:11+0200	4	607	0
99	2015-10-14T16:06:09+0200	1	0	4	0	4	2015-10-14T15:53:51+0200	0	608	0
100	2015-10-14T16:20:48+0200	0	0	8	0	6	2015-10-14T16:20:48+0200	2	609	0
86	2015-10-14T16:49:55+0200	2	0	15	0	12	2015-10-14T16:49:55+0200	2	610	1
103	2015-10-14T17:13:43+0200	6	0	7	0	7	2015-10-14T17:13:43+0200	0	611	0
87	2015-10-15T21:43:43+0200	2	0	22	5	20	2015-10-14T17:22:14+0200	2	612	0
86	2015-10-14T17:37:00+0200	2	0	20	0	18	2015-10-14T17:37:00+0200	2	613	0
86	2015-10-14T18:09:48+0200	2	0	16	0	15	2015-10-14T18:07:11+0200	1	614	0
99	2015-10-14T18:11:12+0200	0	0	6	0	6	2015-10-14T18:11:12+0200	0	615	0
88	2015-10-14T18:18:38+0200	0	0	5	0	5	2015-10-14T18:18:38+0200	0	616	0
99	2015-10-14T18:25:49+0200	0	0	5	0	5	2015-10-14T18:25:49+0200	0	617	0
86	2015-10-15T13:03:22+0200	2	0	14	0	9	2015-10-14T18:26:15+0200	4	618	1
97	2015-10-14T18:39:10+0200	0	0	4	0	4	2015-10-14T18:39:10+0200	0	619	0
86	2015-10-14T18:51:45+0200	3	0	16	0	12	2015-10-14T18:51:45+0200	3	620	1
99	2015-10-14T19:35:56+0200	1	0	8	0	4	2015-10-14T19:35:56+0200	3	621	1
99	2015-10-14T21:58:58+0200	0	0	4	0	3	2015-10-14T21:58:58+0200	1	622	0
109	2015-10-14T22:15:12+0200	0	0	5	0	5	2015-10-14T22:15:12+0200	0	623	0
90	2015-10-14T22:24:05+0200	0	0	11	0	11	2015-10-14T22:24:05+0200	0	624	0
88	2015-10-14T22:27:12+0200	2	0	13	0	12	2015-10-14T22:27:12+0200	1	625	0
90	2015-10-14T22:38:36+0200	0	0	27	0	9	2015-10-14T22:38:36+0200	3	626	15
97	2015-10-14T22:55:08+0200	1	0	7	0	5	2015-10-14T22:55:08+0200	2	627	0
99	2015-10-14T23:34:19+0200	0	0	2	0	1	2015-10-14T23:34:19+0200	1	628	0
99	2015-10-15T04:50:43+0200	1	0	19	0	18	2015-10-15T04:50:43+0200	1	629	0
86	2015-10-15T10:24:07+0200	3	0	18	0	4	2015-10-15T10:24:07+0200	1	630	13
94	2015-10-15T12:56:00+0200	3	0	4	0	2	2015-10-15T12:56:00+0200	1	631	1
86	2015-10-15T14:02:12+0200	0	0	5	0	1	2015-10-15T14:02:12+0200	1	632	3
99	2015-10-15T14:57:44+0200	1	0	7	0	7	2015-10-15T14:57:44+0200	0	633	0
96	2015-10-15T15:31:10+0200	0	0	8	0	6	2015-10-15T15:31:10+0200	2	634	0
86	2015-10-15T15:36:20+0200	2	0	97	0	95	2015-10-15T15:36:20+0200	1	635	1
86	2015-10-15T17:26:35+0200	4	1	90	0	88	2015-10-15T15:38:29+0200	0	636	2
86	2015-10-15T15:39:28+0200	2	0	89	0	88	2015-10-15T15:39:28+0200	0	637	1
86	2015-10-15T15:41:10+0200	0	0	86	0	83	2015-10-15T15:41:10+0200	2	638	1
86	2015-12-02T17:19:43+0100	3	0	123	0	119	2015-10-15T15:45:03+0200	2	639	2
86	2015-10-15T15:47:16+0200	0	1	101	0	98	2015-10-15T15:47:16+0200	3	640	0
86	2015-10-15T15:48:19+0200	1	1	108	0	107	2015-10-15T15:48:19+0200	0	641	1
86	2015-10-15T15:49:49+0200	7	0	67	0	50	2015-10-15T15:49:49+0200	12	642	5
86	2015-10-15T16:04:58+0200	3	0	26	0	24	2015-10-15T16:04:58+0200	0	643	2
90	2015-10-15T16:29:07+0200	3	0	10	0	0	2015-10-15T16:29:07+0200	5	644	5
86	2015-10-15T16:46:03+0200	1	1	11	0	8	2015-10-15T16:46:03+0200	2	645	1
95	2015-10-15T16:54:18+0200	1	0	4	0	4	2015-10-15T16:54:18+0200	0	646	0
88	2015-10-15T17:53:59+0200	0	0	5	0	5	2015-10-15T17:53:59+0200	0	648	0
86	2015-10-15T18:36:28+0200	0	0	14	0	11	2015-10-15T18:36:28+0200	1	649	2
86	2015-10-15T19:04:20+0200	0	0	10	1	10	2015-10-15T19:03:30+0200	0	650	0
99	2015-10-15T19:59:35+0200	2	0	151	0	149	2015-10-15T19:59:35+0200	2	651	0
99	2015-10-15T20:21:22+0200	0	1	159	0	156	2015-10-15T20:21:22+0200	3	652	0
96	2015-10-15T20:46:06+0200	0	0	2	0	1	2015-10-15T20:46:06+0200	1	653	0
97	2015-10-15T22:14:04+0200	0	0	5	0	5	2015-10-15T22:14:04+0200	0	654	0
90	2015-10-15T22:38:38+0200	0	0	4	0	0	2015-10-15T22:38:38+0200	4	655	0
104	2015-10-15T23:46:30+0200	1	0	3	0	1	2015-10-15T23:46:30+0200	1	656	1
111	2015-10-16T01:02:04+0200	4	0	27	0	24	2015-10-16T01:02:04+0200	0	657	3
95	2015-10-16T07:13:25+0200	1	1	4	0	3	2015-10-16T07:13:25+0200	1	658	0
97	2015-10-16T07:44:14+0200	0	0	3	1	2	2015-10-16T07:44:14+0200	1	659	0
87	2015-10-16T07:50:18+0200	1	0	3	0	3	2015-10-16T07:50:18+0200	0	660	0
86	2015-10-16T08:38:00+0200	3	0	16	0	9	2015-10-16T08:38:00+0200	2	661	5
86	2015-10-16T08:49:51+0200	1	0	9	0	6	2015-10-16T08:49:51+0200	2	662	1
99	2015-10-16T08:56:10+0200	1	0	3	0	3	2015-10-16T08:56:10+0200	0	663	0
104	2015-10-16T08:58:31+0200	1	0	4	0	3	2015-10-16T08:58:31+0200	1	664	0
90	2015-10-16T10:35:10+0200	0	0	19	0	2	2015-10-16T10:35:10+0200	2	665	15
97	2015-10-16T11:13:18+0200	1	0	9	0	8	2015-10-16T11:01:15+0200	0	666	1
86	2015-10-16T11:06:37+0200	1	0	19	0	12	2015-10-16T11:06:37+0200	4	667	3
99	2015-10-16T12:09:01+0200	3	0	5	0	2	2015-10-16T12:09:01+0200	2	668	1
100	2015-10-16T12:09:11+0200	2	1	7	0	7	2015-10-16T12:09:11+0200	0	669	0
107	2015-10-16T12:58:25+0200	2	1	6	0	1	2015-10-16T12:58:25+0200	2	670	3
103	2015-10-16T14:51:02+0200	0	0	2	0	1	2015-10-16T14:51:02+0200	0	671	1
96	2015-10-16T14:55:45+0200	6	0	19	0	16	2015-10-16T14:55:45+0200	2	672	1
91	2015-10-16T15:05:12+0200	39	4	4099	0	4055	2015-10-16T15:02:38+0200	20	673	24
86	2015-10-16T16:50:44+0200	0	0	10	0	10	2015-10-16T16:00:09+0200	0	674	0
86	2015-10-16T16:05:05+0200	0	0	11	0	8	2015-10-16T16:05:05+0200	2	675	1
87	2015-10-16T16:35:31+0200	0	0	4	0	4	2015-10-16T16:35:31+0200	0	676	0
86	2015-10-16T16:36:50+0200	0	0	7	0	6	2015-10-16T16:36:50+0200	1	677	0
99	2015-10-16T16:38:29+0200	0	0	3	0	3	2015-10-16T16:38:29+0200	0	678	0
87	2015-10-16T16:46:20+0200	1	0	8	0	6	2015-10-16T16:46:20+0200	1	679	1
87	2015-10-16T17:20:49+0200	2	0	7	0	6	2015-10-16T17:19:07+0200	0	680	1
111	2015-10-16T17:26:40+0200	3	0	12	0	9	2015-10-16T17:26:40+0200	0	681	3
86	2015-10-16T17:42:00+0200	0	0	6	0	4	2015-10-16T17:42:00+0200	2	682	0
87	2015-10-16T17:45:13+0200	0	0	7	0	4	2015-10-16T17:45:13+0200	3	683	0
88	2015-10-16T17:50:09+0200	1	0	5	0	3	2015-10-16T17:50:09+0200	1	684	1
99	2015-10-16T19:02:12+0200	0	0	2	0	2	2015-10-16T19:02:12+0200	0	685	0
87	2015-10-16T19:56:01+0200	1	0	7	1	6	2015-10-16T19:56:01+0200	1	686	0
103	2015-10-16T20:30:37+0200	0	0	2	0	0	2015-10-16T20:30:37+0200	1	687	1
99	2015-10-17T11:05:04+0200	1	0	5	0	1	2015-10-16T21:11:47+0200	2	688	2
103	2015-10-16T22:08:52+0200	2	0	9	0	8	2015-10-16T22:08:52+0200	1	689	0
110	2015-10-16T22:25:34+0200	0	0	3	0	2	2015-10-16T22:25:34+0200	0	690	1
87	2015-10-16T22:46:09+0200	1	0	8	0	8	2015-10-16T22:36:49+0200	0	691	0
94	2015-10-17T03:33:47+0200	2	0	3	0	2	2015-10-17T03:33:47+0200	1	693	0
107	2015-10-17T09:52:03+0200	0	0	1	0	1	2015-10-17T09:52:03+0200	0	694	0
100	2015-10-17T10:30:46+0200	2	0	4	0	0	2015-10-17T10:30:46+0200	0	695	4
86	2015-10-17T11:17:01+0200	2	0	16	0	7	2015-10-17T11:17:01+0200	2	696	7
103	2015-10-17T11:28:01+0200	0	0	2	0	0	2015-10-17T11:28:01+0200	1	697	1
87	2015-10-17T11:36:49+0200	2	0	10	0	8	2015-10-17T11:30:28+0200	1	698	1
103	2015-10-17T11:48:22+0200	0	0	2	0	1	2015-10-17T11:48:22+0200	0	699	1
99	2015-10-17T11:49:13+0200	0	0	4	0	4	2015-10-17T11:49:13+0200	0	700	0
103	2015-10-17T11:50:50+0200	1	0	3	0	1	2015-10-17T11:50:50+0200	1	701	1
103	2015-10-17T11:52:09+0200	0	0	4	0	1	2015-10-17T11:52:09+0200	2	702	1
103	2015-10-17T11:53:44+0200	1	0	4	0	2	2015-10-17T11:53:44+0200	1	703	1
103	2015-10-17T11:55:34+0200	0	0	3	0	2	2015-10-17T11:55:34+0200	0	704	1
86	2015-10-17T11:57:14+0200	1	0	16	0	3	2015-10-17T11:57:14+0200	3	705	10
87	2015-10-17T12:41:30+0200	2	0	5	0	4	2015-10-17T12:41:30+0200	0	706	1
99	2015-10-17T12:59:52+0200	0	0	4	0	4	2015-10-17T12:59:52+0200	0	707	0
88	2015-10-17T13:44:06+0200	3	0	4	1	2	2015-10-17T13:42:47+0200	1	708	1
103	2015-10-17T17:02:46+0200	2	0	4	0	2	2015-10-17T13:45:16+0200	1	709	1
86	2015-10-17T13:54:48+0200	1	0	8	0	8	2015-10-17T13:54:48+0200	0	710	0
90	2015-10-17T13:58:37+0200	1	0	4	0	1	2015-10-17T13:58:37+0200	0	711	3
94	2015-10-17T15:04:13+0200	1	0	4	0	4	2015-10-17T15:04:13+0200	0	712	0
95	2015-10-17T16:20:52+0200	0	0	2	0	1	2015-10-17T16:20:52+0200	1	713	0
99	2015-10-17T17:13:56+0200	1	0	3	0	0	2015-10-17T17:13:56+0200	3	714	0
86	2015-10-17T17:24:46+0200	2	0	5	0	4	2015-10-17T17:24:20+0200	1	715	0
86	2015-10-17T18:49:07+0200	0	0	4	0	1	2015-10-17T18:49:07+0200	1	716	2
110	2015-10-17T19:29:10+0200	2	0	5	0	4	2015-10-17T19:29:10+0200	0	717	1
88	2015-10-17T20:15:45+0200	0	0	12	0	10	2015-10-17T20:15:45+0200	0	718	2
111	2015-10-17T22:51:19+0200	1	0	4	0	3	2015-10-17T22:51:19+0200	1	719	0
106	2015-10-17T23:48:53+0200	0	0	1	0	1	2015-10-17T23:48:53+0200	0	720	0
86	2015-10-18T09:10:11+0200	4	0	9	0	5	2015-10-18T08:54:16+0200	1	721	3
94	2015-10-18T09:28:39+0200	0	0	4	0	3	2015-10-18T09:28:39+0200	1	722	0
99	2015-10-18T09:50:14+0200	1	0	2	0	0	2015-10-18T09:50:14+0200	1	723	1
103	2015-10-18T10:58:34+0200	1	0	3	0	3	2015-10-18T10:05:09+0200	0	724	0
99	2015-10-18T21:53:27+0200	1	1	1	0	1	2015-10-18T11:41:51+0200	0	725	0
99	2015-10-18T21:52:30+0200	0	0	1	0	1	2015-10-18T11:44:02+0200	0	726	0
99	2015-10-18T21:50:57+0200	0	0	1	0	1	2015-10-18T11:46:02+0200	0	727	0
99	2015-10-18T21:49:42+0200	0	0	1	0	1	2015-10-18T11:47:37+0200	0	728	0
99	2015-10-18T21:48:35+0200	0	0	1	0	1	2015-10-18T11:48:56+0200	0	729	0
99	2015-10-18T21:45:57+0200	2	0	1	0	1	2015-10-18T11:50:45+0200	0	730	0
99	2015-10-18T21:43:10+0200	1	0	1	0	1	2015-10-18T11:52:09+0200	0	731	0
103	2015-10-18T11:59:49+0200	1	0	3	0	3	2015-10-18T11:59:49+0200	0	732	0
86	2015-10-18T13:12:40+0200	1	0	1	0	1	2015-10-18T13:12:40+0200	0	733	0
86	2015-10-18T15:12:03+0200	0	0	1	0	1	2015-10-18T15:12:03+0200	0	734	0
86	2015-10-18T15:22:20+0200	1	0	1	0	1	2015-10-18T15:22:20+0200	0	735	0
86	2015-10-18T15:25:25+0200	0	0	3	0	3	2015-10-18T15:25:25+0200	0	736	0
87	2015-10-18T15:27:29+0200	1	0	3	0	1	2015-10-18T15:27:29+0200	1	737	1
87	2015-10-18T15:28:57+0200	0	0	3	0	2	2015-10-18T15:28:57+0200	1	738	0
87	2015-10-18T15:30:35+0200	0	0	5	0	3	2015-10-18T15:30:35+0200	1	739	1
90	2015-10-18T15:32:40+0200	1	0	3	0	2	2015-10-18T15:32:40+0200	0	740	1
91	2015-10-18T15:34:20+0200	0	0	3	0	3	2015-10-18T15:34:20+0200	0	741	0
95	2015-10-18T15:36:23+0200	0	0	0	0	0	2015-10-18T15:36:23+0200	0	742	0
99	2015-10-18T15:38:41+0200	0	0	2	0	2	2015-10-18T15:38:41+0200	0	743	0
103	2015-10-18T15:40:24+0200	0	0	1	0	1	2015-10-18T15:40:24+0200	0	744	0
106	2015-10-18T15:42:15+0200	0	0	1	0	1	2015-10-18T15:42:15+0200	0	745	0
110	2015-10-18T15:46:20+0200	1	0	3	0	2	2015-10-18T15:46:20+0200	1	746	0
91	2015-10-18T15:46:53+0200	0	0	2	0	2	2015-10-18T15:46:53+0200	0	747	0
111	2015-10-18T15:48:42+0200	1	0	2	0	1	2015-10-18T15:48:42+0200	0	748	1
86	2015-10-18T15:54:37+0200	0	0	1	0	0	2015-10-18T15:54:37+0200	1	749	0
86	2015-10-18T15:56:00+0200	0	0	2	0	2	2015-10-18T15:56:00+0200	0	750	0
90	2015-10-18T16:01:41+0200	0	0	2	0	2	2015-10-18T15:58:04+0200	0	751	0
99	2015-10-18T15:59:56+0200	0	0	1	0	1	2015-10-18T15:59:56+0200	0	752	0
86	2015-10-18T17:12:42+0200	0	0	4	0	4	2015-10-18T17:12:42+0200	0	753	0
99	2015-10-18T17:17:24+0200	0	0	1	0	1	2015-10-18T17:17:24+0200	0	754	0
99	2015-10-18T17:34:48+0200	1	0	1	0	0	2015-10-18T17:34:48+0200	1	755	0
87	2015-10-18T17:50:29+0200	0	0	4	0	4	2015-10-18T17:50:29+0200	0	756	0
99	2015-10-18T18:04:20+0200	0	0	7	0	7	2015-10-18T18:04:20+0200	0	757	0
88	2015-10-18T18:33:50+0200	1	0	2	0	1	2015-10-18T18:33:50+0200	0	758	1
99	2015-10-18T18:42:56+0200	0	0	1	0	1	2015-10-18T18:42:56+0200	0	759	0
87	2015-10-18T18:45:55+0200	0	0	2	0	2	2015-10-18T18:45:55+0200	0	760	0
95	2015-10-18T19:08:40+0200	0	0	3	0	3	2015-10-18T19:08:40+0200	0	761	0
103	2015-10-18T19:13:38+0200	0	0	0	0	0	2015-10-18T19:13:38+0200	0	762	0
86	2015-10-18T19:44:03+0200	0	0	3	0	3	2015-10-18T19:44:03+0200	0	763	0
104	2015-10-18T19:58:24+0200	0	0	1	0	1	2015-10-18T19:58:24+0200	0	764	0
103	2015-10-18T20:25:57+0200	0	0	1	0	1	2015-10-18T20:25:57+0200	0	765	0
110	2015-10-18T20:36:23+0200	0	0	1	0	0	2015-10-18T20:36:23+0200	1	766	0
96	2015-10-18T21:22:08+0200	1	0	1	0	1	2015-10-18T21:22:08+0200	0	767	0
86	2015-10-18T21:34:21+0200	0	0	1	0	1	2015-10-18T21:34:21+0200	0	768	0
90	2015-10-18T21:47:51+0200	0	0	0	0	0	2015-10-18T21:47:51+0200	0	769	0
90	2015-10-18T21:54:33+0200	0	0	0	0	0	2015-10-18T21:54:33+0200	0	770	0
86	2015-10-18T21:59:23+0200	0	0	1	0	1	2015-10-18T21:59:23+0200	0	771	0
86	2015-10-18T22:07:28+0200	1	0	1	0	1	2015-10-18T22:07:28+0200	0	772	0
86	2015-10-18T22:10:22+0200	0	0	1	0	1	2015-10-18T22:10:22+0200	0	773	0
90	2015-10-18T22:12:07+0200	0	0	0	0	0	2015-10-18T22:12:07+0200	0	774	0
86	2015-10-18T22:15:08+0200	0	0	1	0	1	2015-10-18T22:15:08+0200	0	775	0
90	2015-10-18T22:18:08+0200	0	0	0	0	0	2015-10-18T22:18:08+0200	0	776	0
110	2015-10-18T22:30:50+0200	0	0	0	0	0	2015-10-18T22:30:50+0200	0	777	0
86	2015-10-18T22:48:42+0200	0	0	1	0	1	2015-10-18T22:48:42+0200	0	778	0
103	2015-10-18T23:54:24+0200	1	0	1	0	1	2015-10-18T23:25:02+0200	0	779	0
91	2015-10-18T23:25:07+0200	0	0	0	0	0	2015-10-18T23:25:07+0200	0	780	0
87	2015-10-18T23:33:09+0200	0	0	1	0	1	2015-10-18T23:33:09+0200	0	781	0
103	2015-10-18T23:54:00+0200	0	0	1	0	1	2015-10-18T23:54:00+0200	0	782	0
